# 3ds Max Wavefront OBJ Exporter v0.97b - (c)2007 guruware
# File Created: 10.10.2013 20:04:33

#
# object Teapot001
#

v  2.6642 5.5429 -1.8339
v  2.4136 5.5429 -0.5648
v  2.3720 5.7134 -0.5825
v  2.6191 5.7134 -1.8339
v  2.4203 5.7702 -0.5619
v  2.6714 5.7702 -1.8339
v  2.5185 5.7134 -0.5202
v  2.7779 5.7134 -1.8339
v  2.6267 5.5429 -0.4741
v  2.8951 5.5429 -1.8339
v  1.7265 5.5429 0.4618
v  1.6945 5.7134 0.4298
v  1.7316 5.7702 0.4669
v  1.8072 5.7134 0.5425
v  1.8905 5.5429 0.6258
v  0.6999 5.5429 1.1489
v  0.6822 5.7134 1.1073
v  0.7028 5.7702 1.1556
v  0.7445 5.7134 1.2538
v  0.7906 5.5429 1.3620
v  -0.5692 5.5429 1.3995
v  -0.5692 5.7134 1.3544
v  -0.5692 5.7702 1.4067
v  -0.5692 5.7134 1.5132
v  -0.5692 5.5429 1.6304
v  -1.9259 5.5429 1.1489
v  -1.8575 5.7134 1.1073
v  -1.8521 5.7702 1.1556
v  -1.8842 5.7134 1.2538
v  -1.9289 5.5429 1.3620
v  -2.9428 5.5429 0.4618
v  -2.8657 5.7134 0.4298
v  -2.8797 5.7702 0.4669
v  -2.9468 5.7134 0.5425
v  -3.0288 5.5429 0.6258
v  -3.5812 5.5429 -0.5648
v  -3.5227 5.7134 -0.5825
v  -3.5622 5.7702 -0.5619
v  -3.6573 5.7134 -0.5202
v  -3.7650 5.5429 -0.4741
v  -3.8025 5.5429 -1.8339
v  -3.7574 5.7134 -1.8339
v  -3.8097 5.7702 -1.8339
v  -3.9162 5.7134 -1.8339
v  -4.0335 5.5429 -1.8339
v  -3.5519 5.5429 -3.1030
v  -3.5103 5.7134 -3.0852
v  -3.5586 5.7702 -3.1058
v  -3.6568 5.7134 -3.1476
v  -3.7650 5.5429 -3.1936
v  -2.8648 5.5429 -4.1295
v  -2.8328 5.7134 -4.0975
v  -2.8700 5.7702 -4.1347
v  -2.9456 5.7134 -4.2102
v  -3.0288 5.5429 -4.2935
v  -1.8383 5.5429 -4.8166
v  -1.8206 5.7134 -4.7750
v  -1.8411 5.7702 -4.8233
v  -1.8829 5.7134 -4.9215
v  -1.9289 5.5429 -5.0297
v  -0.5692 5.5429 -5.0672
v  -0.5692 5.7134 -5.0221
v  -0.5692 5.7702 -5.0744
v  -0.5692 5.7134 -5.1809
v  -0.5692 5.5429 -5.2982
v  0.6999 5.5429 -4.8166
v  0.6822 5.7134 -4.7750
v  0.7028 5.7702 -4.8233
v  0.7445 5.7134 -4.9215
v  0.7906 5.5429 -5.0297
v  1.7265 5.5429 -4.1295
v  1.6945 5.7134 -4.0975
v  1.7316 5.7702 -4.1347
v  1.8072 5.7134 -4.2102
v  1.8905 5.5429 -4.2935
v  2.4136 5.5429 -3.1030
v  2.3720 5.7134 -3.0852
v  2.4203 5.7702 -3.1058
v  2.5185 5.7134 -3.1476
v  2.6267 5.5429 -3.1936
v  3.0178 4.6362 -0.3077
v  3.3192 4.6362 -1.8339
v  3.3590 3.7458 -0.1625
v  3.6890 3.7458 -1.8339
v  3.6004 2.8878 -0.0598
v  3.9507 2.8878 -1.8339
v  3.6919 2.0786 -0.0209
v  4.0499 2.0786 -1.8339
v  2.1915 4.6362 0.9268
v  2.4542 3.7458 1.1895
v  2.6399 2.8878 1.3752
v  2.7104 2.0786 1.4457
v  0.9570 4.6362 1.7531
v  1.1022 3.7458 2.0943
v  1.2049 2.8878 2.3357
v  1.2438 2.0786 2.4272
v  -0.5692 4.6362 2.0545
v  -0.5692 3.7458 2.4243
v  -0.5692 2.8878 2.6860
v  -0.5692 2.0786 2.7852
v  -2.0953 4.6362 1.7531
v  -2.2405 3.7458 2.0943
v  -2.3432 2.8878 2.3357
v  -2.3822 2.0786 2.4272
v  -3.3299 4.6362 0.9268
v  -3.5925 3.7458 1.1895
v  -3.7783 2.8878 1.3752
v  -3.8487 2.0786 1.4457
v  -4.1561 4.6362 -0.3077
v  -4.4974 3.7458 -0.1625
v  -4.7387 2.8878 -0.0598
v  -4.8303 2.0786 -0.0209
v  -4.4575 4.6362 -1.8339
v  -4.8274 3.7458 -1.8339
v  -5.0890 2.8878 -1.8339
v  -5.1882 2.0786 -1.8339
v  -4.1561 4.6362 -3.3600
v  -4.4974 3.7458 -3.5052
v  -4.7387 2.8878 -3.6079
v  -4.8303 2.0786 -3.6468
v  -3.3299 4.6362 -4.5946
v  -3.5925 3.7458 -4.8572
v  -3.7783 2.8878 -5.0429
v  -3.8487 2.0786 -5.1134
v  -2.0953 4.6362 -5.4208
v  -2.2405 3.7458 -5.7621
v  -2.3432 2.8878 -6.0034
v  -2.3822 2.0786 -6.0950
v  -0.5692 4.6362 -5.7222
v  -0.5692 3.7458 -6.0921
v  -0.5692 2.8878 -6.3537
v  -0.5692 2.0786 -6.4529
v  0.9570 4.6362 -5.4208
v  1.1022 3.7458 -5.7621
v  1.2049 2.8878 -6.0034
v  1.2438 2.0786 -6.0950
v  2.1915 4.6362 -4.5946
v  2.4542 3.7458 -4.8572
v  2.6399 2.8878 -5.0429
v  2.7104 2.0786 -5.1134
v  3.0178 4.6362 -3.3600
v  3.3590 3.7458 -3.5052
v  3.6004 2.8878 -3.6079
v  3.6919 2.0786 -3.6468
v  3.5255 1.3938 -0.0917
v  3.8695 1.3938 -1.8339
v  3.1593 0.8877 -0.2475
v  3.4725 0.8877 -1.8339
v  2.7931 0.5440 -0.4033
v  3.0756 0.5440 -1.8339
v  2.6267 0.3464 -0.4741
v  2.8951 0.3464 -1.8339
v  2.5823 1.3938 1.3176
v  2.3004 0.8877 1.0357
v  2.0186 0.5440 0.7539
v  1.8905 0.3464 0.6258
v  1.1730 1.3938 2.2608
v  1.0172 0.8877 1.8946
v  0.8614 0.5440 1.5284
v  0.7906 0.3464 1.3620
v  -0.5692 1.3938 2.6048
v  -0.5692 0.8877 2.2078
v  -0.5692 0.5440 1.8109
v  -0.5692 0.3464 1.6304
v  -2.3113 1.3938 2.2608
v  -2.1555 0.8877 1.8946
v  -1.9997 0.5440 1.5284
v  -1.9289 0.3464 1.3620
v  -3.7206 1.3938 1.3176
v  -3.4388 0.8877 1.0357
v  -3.1569 0.5440 0.7539
v  -3.0288 0.3464 0.6258
v  -4.6638 1.3938 -0.0917
v  -4.2976 0.8877 -0.2475
v  -3.9314 0.5440 -0.4033
v  -3.7650 0.3464 -0.4741
v  -5.0078 1.3938 -1.8339
v  -4.6109 0.8877 -1.8339
v  -4.2139 0.5440 -1.8339
v  -4.0335 0.3464 -1.8339
v  -4.6638 1.3938 -3.5760
v  -4.2976 0.8877 -3.4202
v  -3.9314 0.5440 -3.2644
v  -3.7650 0.3464 -3.1936
v  -3.7206 1.3938 -4.9853
v  -3.4388 0.8877 -4.7035
v  -3.1569 0.5440 -4.4216
v  -3.0288 0.3464 -4.2935
v  -2.3113 1.3938 -5.9285
v  -2.1555 0.8877 -5.5623
v  -1.9997 0.5440 -5.1961
v  -1.9289 0.3464 -5.0297
v  -0.5692 1.3938 -6.2725
v  -0.5692 0.8877 -5.8755
v  -0.5692 0.5440 -5.4786
v  -0.5692 0.3464 -5.2982
v  1.1730 1.3938 -5.9285
v  1.0172 0.8877 -5.5623
v  0.8614 0.5440 -5.1961
v  0.7906 0.3464 -5.0297
v  2.5823 1.3938 -4.9853
v  2.3004 0.8877 -4.7035
v  2.0186 0.5440 -4.4216
v  1.8905 0.3464 -4.2935
v  3.5255 1.3938 -3.5760
v  3.1593 0.8877 -3.4202
v  2.7931 0.5440 -3.2644
v  2.6267 0.3464 -3.1936
v  2.5542 0.2192 -0.5049
v  2.8166 0.2192 -1.8339
v  2.1673 0.1083 -0.6696
v  2.3971 0.1083 -1.8339
v  1.2110 0.0298 -1.0764
v  1.3606 0.0298 -1.8339
v  -0.5692 0.0000 -1.8339
v  1.8348 0.2192 0.5701
v  1.5369 0.1083 0.2722
v  0.8009 0.0298 -0.4638
v  0.7598 0.2192 1.2896
v  0.5951 0.1083 0.9026
v  0.1882 0.0298 -0.0537
v  -0.5692 0.2192 1.5520
v  -0.5692 0.1083 1.1324
v  -0.5692 0.0298 0.0959
v  -1.8981 0.2192 1.2896
v  -1.7334 0.1083 0.9026
v  -1.3266 0.0298 -0.0537
v  -2.9731 0.2192 0.5701
v  -2.6752 0.1083 0.2722
v  -1.9393 0.0298 -0.4638
v  -3.6926 0.2192 -0.5049
v  -3.3056 0.1083 -0.6696
v  -2.3493 0.0298 -1.0764
v  -3.9550 0.2192 -1.8339
v  -3.5355 0.1083 -1.8339
v  -2.4989 0.0298 -1.8339
v  -3.6926 0.2192 -3.1628
v  -3.3056 0.1083 -2.9981
v  -2.3493 0.0298 -2.5913
v  -2.9731 0.2192 -4.2378
v  -2.6752 0.1083 -3.9399
v  -1.9393 0.0298 -3.2040
v  -1.8981 0.2192 -4.9573
v  -1.7334 0.1083 -4.5703
v  -1.3266 0.0298 -3.6140
v  -0.5692 0.2192 -5.2197
v  -0.5692 0.1083 -4.8002
v  -0.5692 0.0298 -3.7636
v  0.7598 0.2192 -4.9573
v  0.5951 0.1083 -4.5703
v  0.1882 0.0298 -3.6140
v  1.8348 0.2192 -4.2378
v  1.5369 0.1083 -3.9399
v  0.8009 0.0298 -3.2040
v  2.5542 0.2192 -3.1628
v  2.1673 0.1083 -2.9981
v  1.2110 0.0298 -2.5913
v  -4.2644 4.6768 -1.8339
v  -4.2283 4.7580 -1.4441
v  -5.3756 4.7486 -1.4441
v  -5.3434 4.6687 -1.8339
v  -6.2176 4.6829 -1.4441
v  -6.1409 4.6119 -1.8339
v  -6.7362 4.5045 -1.4441
v  -6.6353 4.4576 -1.8339
v  -6.9132 4.1572 -1.4441
v  -6.8049 4.1572 -1.8339
v  -4.1489 4.9366 -1.3142
v  -5.4463 4.9245 -1.3142
v  -6.3863 4.8392 -1.3142
v  -6.9583 4.6078 -1.3142
v  -7.1513 4.1572 -1.3142
v  -4.0696 5.1153 -1.4441
v  -5.5170 5.1003 -1.4441
v  -6.5550 4.9955 -1.4441
v  -7.1803 4.7111 -1.4441
v  -7.3895 4.1572 -1.4441
v  -4.0335 5.1965 -1.8339
v  -5.5491 5.1802 -1.8339
v  -6.6317 5.0665 -1.8339
v  -7.2813 4.7580 -1.8339
v  -7.4978 4.1572 -1.8339
v  -4.0696 5.1153 -2.2236
v  -5.5170 5.1003 -2.2236
v  -6.5550 4.9955 -2.2236
v  -7.1803 4.7111 -2.2236
v  -7.3895 4.1572 -2.2236
v  -4.1489 4.9366 -2.3535
v  -5.4463 4.9245 -2.3535
v  -6.3863 4.8392 -2.3535
v  -6.9583 4.6078 -2.3535
v  -7.1513 4.1572 -2.3535
v  -4.2283 4.7580 -2.2236
v  -5.3756 4.7486 -2.2236
v  -6.2176 4.6829 -2.2236
v  -6.7362 4.5045 -2.2236
v  -6.9132 4.1572 -2.2236
v  -6.8131 3.6408 -1.4441
v  -6.7147 3.6862 -1.8339
v  -6.4995 3.0485 -1.4441
v  -6.4296 3.1179 -1.8339
v  -5.9525 2.4639 -1.4441
v  -5.9280 2.5495 -1.8339
v  -5.1522 1.9703 -1.4441
v  -7.0296 3.5408 -1.3142
v  -6.6534 2.8959 -1.3142
v  -6.0065 2.2755 -1.3142
v  -5.0728 1.7322 -1.3142
v  -7.2460 3.4407 -1.4441
v  -6.8072 2.7434 -1.4441
v  -6.0605 2.0871 -1.4441
v  -4.9934 1.4940 -1.4441
v  -7.3444 3.3953 -1.8339
v  -6.8771 2.6740 -1.8339
v  -6.0850 2.0014 -1.8339
v  -4.9573 1.3857 -1.8339
v  -7.2460 3.4407 -2.2236
v  -6.8072 2.7434 -2.2236
v  -6.0605 2.0871 -2.2236
v  -4.9934 1.4940 -2.2236
v  -7.0296 3.5408 -2.3535
v  -6.6534 2.8959 -2.3535
v  -6.0065 2.2755 -2.3535
v  -5.0728 1.7322 -2.3535
v  -6.8131 3.6408 -2.2236
v  -6.4995 3.0485 -2.2236
v  -5.9525 2.4639 -2.2236
v  -5.1522 1.9703 -2.2236
v  3.3570 3.2911 -1.8339
v  3.3570 2.9934 -0.9764
v  4.5495 3.3248 -1.0597
v  4.4649 3.5455 -1.8339
v  5.0531 4.0286 -1.2428
v  4.9448 4.1572 -1.8339
v  5.3402 4.8522 -1.4259
v  5.2083 4.8987 -1.8339
v  5.8831 5.5429 -1.5091
v  5.6666 5.5429 -1.8339
v  3.3570 2.3384 -0.6906
v  4.7355 2.8391 -0.8016
v  5.2913 3.7458 -1.0457
v  5.6305 4.7499 -1.2899
v  6.3594 5.5429 -1.4008
v  3.3570 1.6834 -0.9764
v  4.9216 2.3535 -1.0597
v  5.5294 3.4630 -1.2428
v  5.9208 4.6475 -1.4259
v  6.8358 5.5429 -1.5091
v  3.3570 1.3857 -1.8339
v  5.0062 2.1327 -1.8339
v  5.6377 3.3344 -1.8339
v  6.0527 4.6010 -1.8339
v  7.0523 5.5429 -1.8339
v  3.3570 1.6834 -2.6913
v  4.9216 2.3535 -2.6081
v  5.5294 3.4630 -2.4250
v  5.9208 4.6475 -2.2419
v  6.8358 5.5429 -2.1586
v  3.3570 2.3384 -2.9771
v  4.7355 2.8391 -2.8661
v  5.2913 3.7458 -2.6220
v  5.6305 4.7499 -2.3779
v  6.3594 5.5429 -2.2669
v  3.3570 2.9934 -2.6913
v  4.5495 3.3248 -2.6081
v  5.0531 4.0286 -2.4250
v  5.3402 4.8522 -2.2419
v  5.8831 5.5429 -2.1586
v  6.0645 5.6451 -1.5294
v  5.8326 5.6403 -1.8339
v  6.1729 5.6804 -1.5740
v  5.9553 5.6728 -1.8339
v  6.1762 5.6470 -1.6187
v  5.9914 5.6403 -1.8339
v  6.0419 5.5429 -1.6390
v  5.8975 5.5429 -1.8339
v  6.5746 5.6555 -1.4279
v  6.6517 5.6972 -1.4874
v  6.5827 5.6616 -1.5470
v  6.3594 5.5429 -1.5740
v  7.0847 5.6660 -1.5294
v  7.1306 5.7139 -1.5740
v  6.9893 5.6763 -1.6187
v  6.6770 5.5429 -1.6390
v  7.3166 5.6708 -1.8339
v  7.3482 5.7215 -1.8339
v  7.1741 5.6829 -1.8339
v  6.8213 5.5429 -1.8339
v  7.0847 5.6660 -2.1383
v  7.1306 5.7139 -2.0937
v  6.9893 5.6763 -2.0490
v  6.6770 5.5429 -2.0287
v  6.5746 5.6555 -2.2398
v  6.6517 5.6972 -2.1803
v  6.5827 5.6616 -2.1207
v  6.3594 5.5429 -2.0937
v  6.0645 5.6451 -2.1383
v  6.1729 5.6804 -2.0937
v  6.1762 5.6470 -2.0490
v  6.0419 5.5429 -2.0287
v  -0.5692 7.2750 -1.8339
v  0.1568 7.1614 -1.5243
v  0.2175 7.1614 -1.8339
v  0.1235 6.8853 -1.5385
v  0.1814 6.8853 -1.8339
v  -0.1496 6.5443 -1.6551
v  -0.1145 6.5443 -1.8339
v  -0.1431 6.2357 -1.6526
v  -0.1073 6.2357 -1.8339
v  -0.0099 7.1614 -1.2746
v  -0.0356 6.8853 -1.3003
v  -0.2461 6.5443 -1.5108
v  -0.2412 6.2357 -1.5059
v  -0.2596 7.1614 -1.1079
v  -0.2738 6.8853 -1.1412
v  -0.3904 6.5443 -1.4143
v  -0.3879 6.2357 -1.4078
v  -0.5692 7.1614 -1.0472
v  -0.5692 6.8853 -1.0833
v  -0.5692 6.5443 -1.3792
v  -0.5692 6.2357 -1.3720
v  -0.8788 7.1614 -1.1079
v  -0.8645 6.8853 -1.1412
v  -0.7479 6.5443 -1.4143
v  -0.7505 6.2357 -1.4078
v  -1.1284 7.1614 -1.2746
v  -1.1027 6.8853 -1.3003
v  -0.8922 6.5443 -1.5108
v  -0.8971 6.2357 -1.5059
v  -1.2952 7.1614 -1.5243
v  -1.2618 6.8853 -1.5385
v  -0.9887 6.5443 -1.6551
v  -0.9953 6.2357 -1.6526
v  -1.3559 7.1614 -1.8339
v  -1.3198 6.8853 -1.8339
v  -1.0239 6.5443 -1.8339
v  -1.0311 6.2357 -1.8339
v  -1.2952 7.1614 -2.1435
v  -1.2618 6.8853 -2.1292
v  -0.9887 6.5443 -2.0126
v  -0.9953 6.2357 -2.0152
v  -1.1284 7.1614 -2.3931
v  -1.1027 6.8853 -2.3674
v  -0.8922 6.5443 -2.1569
v  -0.8971 6.2357 -2.1618
v  -0.8788 7.1614 -2.5599
v  -0.8645 6.8853 -2.5265
v  -0.7479 6.5443 -2.2534
v  -0.7505 6.2357 -2.2600
v  -0.5692 7.1614 -2.6205
v  -0.5692 6.8853 -2.5845
v  -0.5692 6.5443 -2.2886
v  -0.5692 6.2357 -2.2958
v  -0.2596 7.1614 -2.5599
v  -0.2738 6.8853 -2.5265
v  -0.3904 6.5443 -2.2534
v  -0.3879 6.2357 -2.2600
v  -0.0099 7.1614 -2.3931
v  -0.0356 6.8853 -2.3674
v  -0.2461 6.5443 -2.1569
v  -0.2412 6.2357 -2.1618
v  0.1568 7.1614 -2.1435
v  0.1235 6.8853 -2.1292
v  -0.1496 6.5443 -2.0126
v  -0.1431 6.2357 -2.0152
v  0.4029 6.0301 -1.4203
v  0.4846 6.0301 -1.8339
v  1.1885 5.8893 -1.0860
v  1.3362 5.8893 -1.8339
v  1.8943 5.7486 -0.7857
v  2.1012 5.7486 -1.8339
v  2.2005 5.5429 -0.6554
v  2.4332 5.5429 -1.8339
v  0.1790 6.0301 -1.0857
v  0.7836 5.8893 -0.4811
v  1.3268 5.7486 0.0621
v  1.5625 5.5429 0.2978
v  -0.1556 6.0301 -0.8618
v  0.1787 5.8893 -0.0762
v  0.4790 5.7486 0.6296
v  0.6093 5.5429 0.9358
v  -0.5692 6.0301 -0.7801
v  -0.5692 5.8893 0.0715
v  -0.5692 5.7486 0.8365
v  -0.5692 5.5429 1.1685
v  -0.9828 6.0301 -0.8618
v  -1.3170 5.8893 -0.0762
v  -1.6173 5.7486 0.6296
v  -1.7476 5.5429 0.9358
v  -1.3173 6.0301 -1.0857
v  -1.9220 5.8893 -0.4811
v  -2.4652 5.7486 0.0621
v  -2.7009 5.5429 0.2978
v  -1.5412 6.0301 -1.4203
v  -2.3269 5.8893 -1.0860
v  -3.0326 5.7486 -0.7857
v  -3.3389 5.5429 -0.6554
v  -1.6229 6.0301 -1.8339
v  -2.4745 5.8893 -1.8339
v  -3.2396 5.7486 -1.8339
v  -3.5716 5.5429 -1.8339
v  -1.5412 6.0301 -2.2474
v  -2.3269 5.8893 -2.5817
v  -3.0326 5.7486 -2.8820
v  -3.3389 5.5429 -3.0123
v  -1.3173 6.0301 -2.5820
v  -1.9220 5.8893 -3.1867
v  -2.4652 5.7486 -3.7298
v  -2.7009 5.5429 -3.9656
v  -0.9828 6.0301 -2.8059
v  -1.3170 5.8893 -3.5916
v  -1.6173 5.7486 -4.2973
v  -1.7476 5.5429 -4.6036
v  -0.5692 6.0301 -2.8876
v  -0.5692 5.8893 -3.7392
v  -0.5692 5.7486 -4.5043
v  -0.5692 5.5429 -4.8363
v  -0.1556 6.0301 -2.8059
v  0.1787 5.8893 -3.5916
v  0.4790 5.7486 -4.2973
v  0.6093 5.5429 -4.6036
v  0.1790 6.0301 -2.5820
v  0.7836 5.8893 -3.1867
v  1.3268 5.7486 -3.7298
v  1.5625 5.5429 -3.9656
v  0.4029 6.0301 -2.2474
v  1.1885 5.8893 -2.5817
v  1.8943 5.7486 -2.8820
v  2.2005 5.5429 -3.0123
# 529 vertices

vn -0.9667 -0.2558 -0.0000
vn -0.8930 -0.2563 -0.3699
vn -0.8934 0.2560 -0.3691
vn -0.9668 0.2554 -0.0000
vn -0.0839 0.9958 -0.0355
vn -0.0921 0.9958 -0.0000
vn 0.6297 0.7319 0.2604
vn 0.6820 0.7313 -0.0000
vn 0.8037 0.4934 0.3326
vn 0.8703 0.4925 0.0000
vn -0.6834 -0.2567 -0.6834
vn -0.6835 0.2561 -0.6835
vn -0.0649 0.9958 -0.0649
vn 0.4814 0.7325 0.4814
vn 0.6148 0.4940 0.6148
vn -0.3699 -0.2563 -0.8930
vn -0.3691 0.2560 -0.8934
vn -0.0355 0.9958 -0.0839
vn 0.2604 0.7319 0.6297
vn 0.3326 0.4934 0.8037
vn -0.0028 -0.2579 -0.9662
vn -0.0019 0.2547 -0.9670
vn -0.0003 0.9957 -0.0923
vn 0.0000 0.7313 0.6821
vn -0.0000 0.4925 0.8703
vn 0.3791 -0.3593 -0.8528
vn 0.3771 0.1491 -0.9141
vn 0.0275 0.9921 -0.1226
vn -0.2610 0.7268 0.6354
vn -0.3325 0.4925 0.8043
vn 0.6635 -0.4108 -0.6253
vn 0.7127 0.0737 -0.6976
vn 0.0997 0.9875 -0.1220
vn -0.4873 0.7238 0.4886
vn -0.6152 0.4926 0.6155
vn 0.8800 -0.3329 -0.3387
vn 0.9173 0.1671 -0.3615
vn 0.1136 0.9924 -0.0481
vn -0.6341 0.7275 0.2619
vn -0.8041 0.4926 0.3327
vn 0.9667 -0.2557 0.0105
vn 0.9674 0.2530 0.0081
vn 0.0934 0.9956 0.0013
vn -0.6822 0.7312 -0.0003
vn -0.8703 0.4925 -0.0001
vn 0.8930 -0.2563 0.3699
vn 0.8934 0.2560 0.3691
vn 0.0839 0.9958 0.0355
vn -0.6297 0.7319 -0.2604
vn -0.8037 0.4934 -0.3326
vn 0.6834 -0.2567 0.6834
vn 0.6835 0.2561 0.6835
vn 0.0649 0.9958 0.0649
vn -0.4814 0.7325 -0.4814
vn -0.6148 0.4940 -0.6148
vn 0.3699 -0.2563 0.8930
vn 0.3691 0.2560 0.8934
vn 0.0355 0.9958 0.0839
vn -0.2604 0.7319 -0.6297
vn -0.3326 0.4934 -0.8037
vn -0.0000 -0.2558 0.9667
vn -0.0000 0.2554 0.9668
vn -0.0000 0.9958 0.0921
vn -0.0000 0.7313 -0.6820
vn 0.0000 0.4925 -0.8703
vn -0.3699 -0.2563 0.8930
vn -0.3691 0.2560 0.8934
vn -0.0355 0.9958 0.0839
vn 0.2604 0.7319 -0.6297
vn 0.3326 0.4934 -0.8037
vn -0.6834 -0.2567 0.6834
vn -0.6835 0.2561 0.6835
vn -0.0649 0.9958 0.0649
vn 0.4814 0.7325 -0.4814
vn 0.6148 0.4940 -0.6148
vn -0.8930 -0.2563 0.3699
vn -0.8934 0.2560 0.3691
vn -0.0839 0.9958 0.0355
vn 0.6297 0.7319 -0.2604
vn 0.8037 0.4934 -0.3326
vn 0.8454 0.4035 0.3498
vn 0.9153 0.4027 0.0000
vn 0.8700 0.3369 0.3600
vn 0.9418 0.3362 0.0000
vn 0.9042 0.2058 0.3743
vn 0.9787 0.2053 0.0000
vn 0.9219 -0.0664 0.3818
vn 0.9978 -0.0662 0.0000
vn 0.6468 0.4041 0.6468
vn 0.6657 0.3374 0.6657
vn 0.6919 0.2061 0.6919
vn 0.7055 -0.0665 0.7055
vn 0.3498 0.4035 0.8454
vn 0.3600 0.3369 0.8700
vn 0.3743 0.2058 0.9042
vn 0.3818 -0.0664 0.9219
vn -0.0000 0.4027 0.9153
vn -0.0000 0.3362 0.9418
vn -0.0000 0.2053 0.9787
vn -0.0000 -0.0662 0.9978
vn -0.3498 0.4035 0.8454
vn -0.3600 0.3369 0.8700
vn -0.3743 0.2058 0.9042
vn -0.3818 -0.0664 0.9219
vn -0.6468 0.4041 0.6468
vn -0.6657 0.3374 0.6657
vn -0.6919 0.2061 0.6919
vn -0.7055 -0.0665 0.7055
vn -0.8454 0.4035 0.3498
vn -0.8700 0.3369 0.3600
vn -0.9042 0.2058 0.3743
vn -0.9219 -0.0664 0.3818
vn -0.9153 0.4027 -0.0000
vn -0.9418 0.3362 -0.0000
vn -0.9787 0.2053 -0.0000
vn -0.9978 -0.0662 -0.0000
vn -0.8454 0.4035 -0.3498
vn -0.8700 0.3369 -0.3600
vn -0.9042 0.2058 -0.3743
vn -0.9219 -0.0664 -0.3818
vn -0.6468 0.4041 -0.6468
vn -0.6657 0.3374 -0.6657
vn -0.6919 0.2061 -0.6919
vn -0.7055 -0.0665 -0.7055
vn -0.3498 0.4035 -0.8454
vn -0.3600 0.3369 -0.8700
vn -0.3743 0.2058 -0.9042
vn -0.3818 -0.0664 -0.9219
vn 0.0000 0.4027 -0.9153
vn 0.0000 0.3362 -0.9418
vn 0.0000 0.2053 -0.9787
vn 0.0000 -0.0662 -0.9978
vn 0.3498 0.4035 -0.8454
vn 0.3600 0.3369 -0.8700
vn 0.3743 0.2058 -0.9042
vn 0.3818 -0.0664 -0.9219
vn 0.6468 0.4041 -0.6468
vn 0.6657 0.3374 -0.6657
vn 0.6919 0.2061 -0.6919
vn 0.7055 -0.0665 -0.7055
vn 0.8454 0.4035 -0.3498
vn 0.8700 0.3369 -0.3600
vn 0.9042 0.2058 -0.3743
vn 0.9219 -0.0664 -0.3818
vn 0.8314 -0.4362 0.3442
vn 0.9002 -0.4355 0.0000
vn 0.6735 -0.6847 0.2786
vn 0.7296 -0.6839 -0.0000
vn 0.6404 -0.7209 0.2649
vn 0.6940 -0.7200 -0.0000
vn 0.7329 -0.6090 0.3032
vn 0.7939 -0.6080 0.0000
vn 0.6361 -0.4368 0.6361
vn 0.5150 -0.6853 0.5150
vn 0.4897 -0.7214 0.4897
vn 0.5606 -0.6096 0.5606
vn 0.3442 -0.4362 0.8314
vn 0.2786 -0.6847 0.6735
vn 0.2649 -0.7209 0.6404
vn 0.3032 -0.6090 0.7329
vn -0.0000 -0.4355 0.9002
vn 0.0000 -0.6839 0.7296
vn 0.0000 -0.7200 0.6940
vn -0.0000 -0.6080 0.7939
vn -0.3442 -0.4362 0.8314
vn -0.2786 -0.6847 0.6735
vn -0.2649 -0.7209 0.6404
vn -0.3032 -0.6090 0.7329
vn -0.6361 -0.4368 0.6361
vn -0.5150 -0.6853 0.5150
vn -0.4897 -0.7214 0.4897
vn -0.5606 -0.6096 0.5606
vn -0.8314 -0.4362 0.3442
vn -0.6735 -0.6847 0.2786
vn -0.6404 -0.7209 0.2649
vn -0.7329 -0.6090 0.3032
vn -0.9002 -0.4355 -0.0000
vn -0.7296 -0.6839 0.0000
vn -0.6940 -0.7200 0.0000
vn -0.7939 -0.6080 -0.0000
vn -0.8314 -0.4362 -0.3442
vn -0.6735 -0.6847 -0.2786
vn -0.6404 -0.7209 -0.2649
vn -0.7329 -0.6090 -0.3032
vn -0.6361 -0.4368 -0.6361
vn -0.5150 -0.6853 -0.5150
vn -0.4897 -0.7214 -0.4897
vn -0.5606 -0.6096 -0.5606
vn -0.3442 -0.4362 -0.8314
vn -0.2786 -0.6847 -0.6735
vn -0.2649 -0.7209 -0.6404
vn -0.3032 -0.6090 -0.7329
vn 0.0000 -0.4355 -0.9002
vn -0.0000 -0.6839 -0.7296
vn -0.0000 -0.7200 -0.6940
vn 0.0000 -0.6080 -0.7939
vn 0.3442 -0.4362 -0.8314
vn 0.2786 -0.6847 -0.6735
vn 0.2649 -0.7209 -0.6404
vn 0.3032 -0.6090 -0.7329
vn 0.6361 -0.4368 -0.6361
vn 0.5150 -0.6853 -0.5150
vn 0.4897 -0.7214 -0.4897
vn 0.5606 -0.6096 -0.5606
vn 0.8314 -0.4362 -0.3442
vn 0.6735 -0.6847 -0.2786
vn 0.6404 -0.7209 -0.2649
vn 0.7329 -0.6090 -0.3032
vn 0.5762 -0.7818 0.2382
vn 0.6239 -0.7815 0.0000
vn 0.1636 -0.9842 0.0675
vn 0.1773 -0.9842 -0.0000
vn 0.0454 -0.9988 0.0187
vn 0.0492 -0.9988 0.0000
vn 0.0000 -1.0000 0.0000
vn 0.4404 -0.7823 0.4404
vn 0.1249 -0.9843 0.1249
vn 0.0347 -0.9988 0.0347
vn 0.2382 -0.7818 0.5762
vn 0.0675 -0.9842 0.1636
vn 0.0187 -0.9988 0.0454
vn -0.0000 -0.7815 0.6239
vn 0.0000 -0.9842 0.1773
vn -0.0000 -0.9988 0.0492
vn -0.2382 -0.7818 0.5762
vn -0.0675 -0.9842 0.1636
vn -0.0187 -0.9988 0.0454
vn -0.4404 -0.7823 0.4404
vn -0.1249 -0.9843 0.1249
vn -0.0347 -0.9988 0.0347
vn -0.5762 -0.7818 0.2382
vn -0.1636 -0.9842 0.0675
vn -0.0454 -0.9988 0.0187
vn -0.6239 -0.7815 -0.0000
vn -0.1773 -0.9842 0.0000
vn -0.0492 -0.9988 -0.0000
vn -0.5762 -0.7818 -0.2382
vn -0.1636 -0.9842 -0.0675
vn -0.0454 -0.9988 -0.0187
vn -0.4404 -0.7823 -0.4404
vn -0.1249 -0.9843 -0.1249
vn -0.0347 -0.9988 -0.0347
vn -0.2382 -0.7818 -0.5762
vn -0.0675 -0.9842 -0.1636
vn -0.0187 -0.9988 -0.0454
vn 0.0000 -0.7815 -0.6239
vn -0.0000 -0.9842 -0.1773
vn 0.0000 -0.9988 -0.0492
vn 0.2382 -0.7818 -0.5762
vn 0.0675 -0.9842 -0.1636
vn 0.0187 -0.9988 -0.0454
vn 0.4404 -0.7823 -0.4404
vn 0.1249 -0.9843 -0.1249
vn 0.0347 -0.9988 -0.0347
vn 0.5762 -0.7818 -0.2382
vn 0.1636 -0.9842 -0.0675
vn 0.0454 -0.9988 -0.0187
vn 0.0078 -1.0000 -0.0002
vn 0.0070 -0.8125 0.5829
vn 0.0361 -0.8373 0.5456
vn 0.0391 -0.9992 -0.0010
vn 0.1618 -0.8104 0.5630
vn 0.1795 -0.9837 -0.0044
vn 0.4824 -0.5951 0.6427
vn 0.6123 -0.7906 -0.0105
vn 0.7387 -0.1146 0.6642
vn 0.9862 -0.1657 -0.0067
vn -0.0019 0.1621 0.9868
vn 0.0028 0.0171 0.9998
vn 0.0105 0.0734 0.9972
vn -0.0660 0.1301 0.9893
vn -0.0944 0.0166 0.9954
vn -0.0092 0.8715 0.4903
vn -0.0486 0.8406 0.5395
vn -0.2233 0.8029 0.5527
vn -0.5964 0.5600 0.5751
vn -0.8033 0.0682 0.5916
vn -0.0106 0.9999 0.0001
vn -0.0588 0.9983 0.0007
vn -0.2807 0.9598 0.0033
vn -0.7497 0.6617 0.0043
vn -0.9974 0.0727 0.0021
vn -0.0088 0.8715 -0.4903
vn -0.0465 0.8412 -0.5388
vn -0.2179 0.8068 -0.5492
vn -0.5973 0.5600 -0.5741
vn -0.8040 0.0629 -0.5913
vn -0.0018 0.1617 -0.9868
vn 0.0020 0.0146 -0.9999
vn 0.0092 0.0601 -0.9982
vn -0.0593 0.1139 -0.9917
vn -0.0869 0.0123 -0.9961
vn 0.0064 -0.8124 -0.5831
vn 0.0338 -0.8375 -0.5454
vn 0.1571 -0.8119 -0.5622
vn 0.4844 -0.5894 -0.6465
vn 0.7389 -0.1013 -0.6662
vn 0.7256 0.2594 0.6374
vn 0.9465 0.3226 -0.0034
vn 0.6459 0.4620 0.6077
vn 0.8258 0.5639 -0.0075
vn 0.5316 0.6367 0.5586
vn 0.6500 0.7599 -0.0069
vn 0.4250 0.6817 0.5955
vn 0.5324 0.8465 -0.0052
vn -0.0496 -0.0198 0.9986
vn -0.0378 -0.0356 0.9986
vn -0.0379 -0.0365 0.9986
vn -0.1689 -0.2979 0.9395
vn -0.7423 -0.2992 0.5995
vn -0.6196 -0.5294 0.5795
vn -0.4837 -0.6858 0.5438
vn -0.4453 -0.7944 0.4132
vn -0.9265 -0.3763 0.0020
vn -0.7539 -0.6570 0.0043
vn -0.5662 -0.8242 0.0035
vn -0.4818 -0.8763 0.0019
vn -0.7447 -0.2944 -0.5990
vn -0.6219 -0.5281 -0.5782
vn -0.4812 -0.6883 -0.5428
vn -0.4381 -0.7970 -0.4157
vn -0.0443 -0.0171 -0.9989
vn -0.0262 -0.0282 -0.9993
vn -0.0253 -0.0283 -0.9993
vn -0.1575 -0.2894 -0.9442
vn 0.7282 0.2524 -0.6371
vn 0.6471 0.4597 -0.6083
vn 0.5230 0.6407 -0.5622
vn 0.4100 0.6829 -0.6047
vn -0.2308 0.9730 -0.0065
vn -0.1529 0.6872 0.7102
vn -0.3167 0.6378 0.7021
vn -0.5489 0.8359 -0.0015
vn -0.6011 0.4715 0.6453
vn -0.8757 0.4828 0.0099
vn -0.6359 0.4461 0.6298
vn -0.8776 0.4791 0.0191
vn -0.4357 0.6010 0.6700
vn -0.6962 0.7174 0.0245
vn 0.1111 -0.0851 0.9902
vn 0.2233 0.0065 0.9747
vn 0.1901 0.1550 0.9695
vn 0.0053 0.1895 0.9819
vn -0.0118 0.2467 0.9690
vn 0.3439 -0.7228 0.5994
vn 0.5725 -0.5677 0.5916
vn 0.7874 -0.2565 0.5605
vn 0.6471 -0.3064 0.6981
vn 0.4275 -0.4993 0.7536
vn 0.4109 -0.9117 0.0013
vn 0.6715 -0.7410 -0.0009
vn 0.9220 -0.3871 -0.0073
vn 0.8469 -0.5316 -0.0139
vn 0.5359 -0.8442 -0.0105
vn 0.3412 -0.7228 -0.6009
vn 0.5787 -0.5611 -0.5918
vn 0.7849 -0.2510 -0.5665
vn 0.6427 -0.3023 -0.7040
vn 0.4186 -0.5000 -0.7581
vn 0.1158 -0.0791 -0.9901
vn 0.2328 0.0126 -0.9724
vn 0.2067 0.1536 -0.9663
vn 0.0245 0.1614 -0.9866
vn 0.0034 0.2111 -0.9775
vn -0.1349 0.6875 -0.7136
vn -0.3195 0.6331 -0.7051
vn -0.6039 0.4614 -0.6499
vn -0.6318 0.4372 -0.6401
vn -0.4243 0.6127 -0.6667
vn -0.2599 0.7919 0.5525
vn -0.4258 0.9048 0.0108
vn 0.0095 0.9997 -0.0217
vn 0.0220 0.9998 0.0016
vn 0.4102 0.3329 -0.8491
vn 0.9996 0.0259 0.0116
vn 0.5415 -0.5486 -0.6370
vn 0.7096 -0.7046 0.0097
vn 0.0463 0.4552 0.8892
vn -0.0107 0.9888 0.1489
vn -0.0444 0.6829 -0.7291
vn 0.1228 0.0092 -0.9924
vn 0.4818 -0.1804 0.8575
vn 0.4553 0.7367 0.4999
vn -0.2205 0.9072 -0.3583
vn -0.2359 0.6572 -0.7158
vn 0.7281 -0.6853 -0.0156
vn 0.8887 0.4581 -0.0167
vn -0.2601 0.9656 0.0008
vn -0.3716 0.9284 -0.0044
vn 0.4802 -0.1784 -0.8589
vn 0.4881 0.7168 -0.4979
vn -0.2220 0.9054 0.3619
vn -0.2354 0.6632 0.7105
vn 0.0587 0.4377 -0.8972
vn 0.0013 0.9865 -0.1640
vn -0.0442 0.6817 0.7303
vn 0.1388 -0.0342 0.9897
vn -0.2589 0.7972 -0.5454
vn 0.0123 0.9997 0.0193
vn 0.3986 0.3549 0.8457
vn 0.5376 -0.5814 0.6107
vn 0.0000 1.0000 0.0000
vn 0.7626 0.5650 0.3148
vn 0.8245 0.5658 0.0000
vn 0.8480 -0.3980 0.3500
vn 0.9177 -0.3973 0.0000
vn 0.8641 -0.3553 0.3564
vn 0.9353 -0.3539 0.0001
vn 0.7210 0.6256 0.2979
vn 0.7807 0.6249 0.0001
vn 0.5834 0.5652 0.5833
vn 0.6485 -0.3987 0.6484
vn 0.6609 -0.3559 0.6607
vn 0.5519 0.6253 0.5518
vn 0.3148 0.5651 0.7626
vn 0.3500 -0.3980 0.8480
vn 0.3565 -0.3552 0.8642
vn 0.2980 0.6255 0.7211
vn -0.0000 0.5658 0.8245
vn -0.0000 -0.3973 0.9177
vn -0.0001 -0.3539 0.9353
vn -0.0001 0.6249 0.7807
vn -0.3148 0.5650 0.7626
vn -0.3500 -0.3980 0.8480
vn -0.3564 -0.3553 0.8641
vn -0.2979 0.6256 0.7210
vn -0.5833 0.5652 0.5834
vn -0.6484 -0.3987 0.6485
vn -0.6607 -0.3559 0.6609
vn -0.5518 0.6253 0.5519
vn -0.7626 0.5651 0.3148
vn -0.8480 -0.3980 0.3500
vn -0.8642 -0.3552 0.3565
vn -0.7211 0.6255 0.2980
vn -0.8245 0.5658 -0.0000
vn -0.9177 -0.3973 -0.0000
vn -0.9353 -0.3539 -0.0001
vn -0.7807 0.6249 -0.0001
vn -0.7626 0.5650 -0.3148
vn -0.8480 -0.3980 -0.3500
vn -0.8641 -0.3553 -0.3564
vn -0.7210 0.6256 -0.2979
vn -0.5834 0.5652 -0.5833
vn -0.6485 -0.3987 -0.6484
vn -0.6609 -0.3559 -0.6607
vn -0.5519 0.6253 -0.5518
vn -0.3148 0.5651 -0.7626
vn -0.3500 -0.3980 -0.8480
vn -0.3565 -0.3552 -0.8642
vn -0.2980 0.6255 -0.7211
vn 0.0000 0.5658 -0.8245
vn 0.0000 -0.3973 -0.9177
vn 0.0001 -0.3539 -0.9353
vn 0.0001 0.6249 -0.7807
vn 0.3148 0.5650 -0.7626
vn 0.3500 -0.3980 -0.8480
vn 0.3564 -0.3553 -0.8641
vn 0.2979 0.6256 -0.7210
vn 0.5833 0.5652 -0.5834
vn 0.6484 -0.3987 -0.6485
vn 0.6607 -0.3559 -0.6609
vn 0.5518 0.6253 -0.5519
vn 0.7626 0.5651 -0.3148
vn 0.8480 -0.3980 -0.3500
vn 0.8642 -0.3552 -0.3565
vn 0.7211 0.6255 -0.2980
vn 0.2180 0.9718 0.0902
vn 0.2366 0.9716 0.0000
vn 0.1596 0.9850 0.0660
vn 0.1731 0.9849 -0.0000
vn 0.3505 0.9253 0.1447
vn 0.3797 0.9251 -0.0000
vn 0.4856 0.8507 0.2015
vn 0.5267 0.8501 -0.0000
vn 0.1666 0.9718 0.1666
vn 0.1219 0.9850 0.1219
vn 0.2677 0.9256 0.2677
vn 0.3713 0.8510 0.3713
vn 0.0902 0.9718 0.2180
vn 0.0660 0.9850 0.1596
vn 0.1447 0.9253 0.3505
vn 0.2015 0.8507 0.4856
vn -0.0000 0.9716 0.2366
vn 0.0000 0.9849 0.1731
vn 0.0000 0.9251 0.3797
vn 0.0000 0.8501 0.5267
vn -0.0902 0.9718 0.2180
vn -0.0660 0.9850 0.1596
vn -0.1447 0.9253 0.3505
vn -0.2015 0.8507 0.4856
vn -0.1666 0.9718 0.1666
vn -0.1219 0.9850 0.1219
vn -0.2677 0.9256 0.2677
vn -0.3713 0.8510 0.3713
vn -0.2180 0.9718 0.0902
vn -0.1596 0.9850 0.0660
vn -0.3505 0.9253 0.1447
vn -0.4856 0.8507 0.2015
vn -0.2366 0.9716 -0.0000
vn -0.1731 0.9849 0.0000
vn -0.3797 0.9251 0.0000
vn -0.5267 0.8501 0.0000
vn -0.2180 0.9718 -0.0902
vn -0.1596 0.9850 -0.0660
vn -0.3505 0.9253 -0.1447
vn -0.4856 0.8507 -0.2015
vn -0.1666 0.9718 -0.1666
vn -0.1219 0.9850 -0.1219
vn -0.2677 0.9256 -0.2677
vn -0.3713 0.8510 -0.3713
vn -0.0902 0.9718 -0.2180
vn -0.0660 0.9850 -0.1596
vn -0.1447 0.9253 -0.3505
vn -0.2015 0.8507 -0.4856
vn 0.0000 0.9716 -0.2366
vn -0.0000 0.9849 -0.1731
vn -0.0000 0.9251 -0.3797
vn -0.0000 0.8501 -0.5267
vn 0.0902 0.9718 -0.2180
vn 0.0660 0.9850 -0.1596
vn 0.1447 0.9253 -0.3505
vn 0.2015 0.8507 -0.4856
vn 0.1666 0.9718 -0.1666
vn 0.1219 0.9850 -0.1219
vn 0.2677 0.9256 -0.2677
vn 0.3713 0.8510 -0.3713
vn 0.2180 0.9718 -0.0902
vn 0.1596 0.9850 -0.0660
vn 0.3505 0.9253 -0.1447
vn 0.4856 0.8507 -0.2015
# 530 vertex normals

vt 2.0000 2.0000 0.0000
vt 1.7500 2.0000 0.0000
vt 1.7500 1.9750 0.0000
vt 2.0000 1.9750 0.0000
vt 1.7500 1.9500 0.0000
vt 2.0000 1.9500 0.0000
vt 1.7500 1.9250 0.0000
vt 2.0000 1.9250 0.0000
vt 1.7500 1.9000 0.0000
vt 2.0000 1.9000 0.0000
vt 1.5000 2.0000 0.0000
vt 1.5000 1.9750 0.0000
vt 1.5000 1.9500 0.0000
vt 1.5000 1.9250 0.0000
vt 1.5000 1.9000 0.0000
vt 1.2500 2.0000 0.0000
vt 1.2500 1.9750 0.0000
vt 1.2500 1.9500 0.0000
vt 1.2500 1.9250 0.0000
vt 1.2500 1.9000 0.0000
vt 1.0000 2.0000 0.0000
vt 1.0000 1.9750 0.0000
vt 1.0000 1.9500 0.0000
vt 1.0000 1.9250 0.0000
vt 1.0000 1.9000 0.0000
vt 0.7500 2.0000 0.0000
vt 0.7500 1.9750 0.0000
vt 0.7500 1.9500 0.0000
vt 0.7500 1.9250 0.0000
vt 0.7500 1.9000 0.0000
vt 0.5000 2.0000 0.0000
vt 0.5000 1.9750 0.0000
vt 0.5000 1.9500 0.0000
vt 0.5000 1.9250 0.0000
vt 0.5000 1.9000 0.0000
vt 0.2500 2.0000 0.0000
vt 0.2500 1.9750 0.0000
vt 0.2500 1.9500 0.0000
vt 0.2500 1.9250 0.0000
vt 0.2500 1.9000 0.0000
vt 0.0000 2.0000 0.0000
vt 0.0000 1.9750 0.0000
vt 0.0000 1.9500 0.0000
vt 0.0000 1.9250 0.0000
vt 0.0000 1.9000 0.0000
vt 1.7500 1.6750 0.0000
vt 2.0000 1.6750 0.0000
vt 1.7500 1.4500 0.0000
vt 2.0000 1.4500 0.0000
vt 1.7500 1.2250 0.0000
vt 2.0000 1.2250 0.0000
vt 1.7500 1.0000 0.0000
vt 2.0000 1.0000 0.0000
vt 1.5000 1.6750 0.0000
vt 1.5000 1.4500 0.0000
vt 1.5000 1.2250 0.0000
vt 1.5000 1.0000 0.0000
vt 1.2500 1.6750 0.0000
vt 1.2500 1.4500 0.0000
vt 1.2500 1.2250 0.0000
vt 1.2500 1.0000 0.0000
vt 1.0000 1.6750 0.0000
vt 1.0000 1.4500 0.0000
vt 1.0000 1.2250 0.0000
vt 1.0000 1.0000 0.0000
vt 0.7500 1.6750 0.0000
vt 0.7500 1.4500 0.0000
vt 0.7500 1.2250 0.0000
vt 0.7500 1.0000 0.0000
vt 0.5000 1.6750 0.0000
vt 0.5000 1.4500 0.0000
vt 0.5000 1.2250 0.0000
vt 0.5000 1.0000 0.0000
vt 0.2500 1.6750 0.0000
vt 0.2500 1.4500 0.0000
vt 0.2500 1.2250 0.0000
vt 0.2500 1.0000 0.0000
vt 0.0000 1.6750 0.0000
vt 0.0000 1.4500 0.0000
vt 0.0000 1.2250 0.0000
vt 0.0000 1.0000 0.0000
vt 1.7500 0.8500 0.0000
vt 2.0000 0.8500 0.0000
vt 1.7500 0.7000 0.0000
vt 2.0000 0.7000 0.0000
vt 1.7500 0.5500 0.0000
vt 2.0000 0.5500 0.0000
vt 1.7500 0.4000 0.0000
vt 2.0000 0.4000 0.0000
vt 1.5000 0.8500 0.0000
vt 1.5000 0.7000 0.0000
vt 1.5000 0.5500 0.0000
vt 1.5000 0.4000 0.0000
vt 1.2500 0.8500 0.0000
vt 1.2500 0.7000 0.0000
vt 1.2500 0.5500 0.0000
vt 1.2500 0.4000 0.0000
vt 1.0000 0.8500 0.0000
vt 1.0000 0.7000 0.0000
vt 1.0000 0.5500 0.0000
vt 1.0000 0.4000 0.0000
vt 0.7500 0.8500 0.0000
vt 0.7500 0.7000 0.0000
vt 0.7500 0.5500 0.0000
vt 0.7500 0.4000 0.0000
vt 0.5000 0.8500 0.0000
vt 0.5000 0.7000 0.0000
vt 0.5000 0.5500 0.0000
vt 0.5000 0.4000 0.0000
vt 0.2500 0.8500 0.0000
vt 0.2500 0.7000 0.0000
vt 0.2500 0.5500 0.0000
vt 0.2500 0.4000 0.0000
vt 0.0000 0.8500 0.0000
vt 0.0000 0.7000 0.0000
vt 0.0000 0.5500 0.0000
vt 0.0000 0.4000 0.0000
vt 1.7500 0.3000 0.0000
vt 2.0000 0.3000 0.0000
vt 1.7500 0.2000 0.0000
vt 2.0000 0.2000 0.0000
vt 1.7500 0.1000 0.0000
vt 2.0000 0.1000 0.0000
vt 1.7500 0.0000 0.0000
vt 2.0000 0.0000 0.0000
vt 1.5000 0.3000 0.0000
vt 1.5000 0.2000 0.0000
vt 1.5000 0.1000 0.0000
vt 1.5000 0.0000 0.0000
vt 1.2500 0.3000 0.0000
vt 1.2500 0.2000 0.0000
vt 1.2500 0.1000 0.0000
vt 1.2500 0.0000 0.0000
vt 1.0000 0.3000 0.0000
vt 1.0000 0.2000 0.0000
vt 1.0000 0.1000 0.0000
vt 1.0000 0.0000 0.0000
vt 0.7500 0.3000 0.0000
vt 0.7500 0.2000 0.0000
vt 0.7500 0.1000 0.0000
vt 0.7500 0.0000 0.0000
vt 0.5000 0.3000 0.0000
vt 0.5000 0.2000 0.0000
vt 0.5000 0.1000 0.0000
vt 0.5000 0.0000 0.0000
vt 0.2500 0.3000 0.0000
vt 0.2500 0.2000 0.0000
vt 0.2500 0.1000 0.0000
vt 0.2500 0.0000 0.0000
vt 0.0000 0.3000 0.0000
vt 0.0000 0.2000 0.0000
vt 0.0000 0.1000 0.0000
vt 0.0000 0.0000 0.0000
vt 0.8750 1.0000 0.0000
vt 0.8750 0.8750 0.0000
vt 1.0000 0.8750 0.0000
vt 0.8750 0.7500 0.0000
vt 1.0000 0.7500 0.0000
vt 0.8750 0.6250 0.0000
vt 1.0000 0.6250 0.0000
vt 0.8750 0.5000 0.0000
vt 1.0000 0.5000 0.0000
vt 0.7500 0.8750 0.0000
vt 0.7500 0.7500 0.0000
vt 0.7500 0.6250 0.0000
vt 0.7500 0.5000 0.0000
vt 0.6250 1.0000 0.0000
vt 0.6250 0.8750 0.0000
vt 0.6250 0.7500 0.0000
vt 0.6250 0.6250 0.0000
vt 0.6250 0.5000 0.0000
vt 0.5000 0.8750 0.0000
vt 0.5000 0.7500 0.0000
vt 0.5000 0.6250 0.0000
vt 0.5000 0.5000 0.0000
vt 0.3750 1.0000 0.0000
vt 0.3750 0.8750 0.0000
vt 0.3750 0.7500 0.0000
vt 0.3750 0.6250 0.0000
vt 0.3750 0.5000 0.0000
vt 0.2500 0.8750 0.0000
vt 0.2500 0.7500 0.0000
vt 0.2500 0.6250 0.0000
vt 0.2500 0.5000 0.0000
vt 0.1250 1.0000 0.0000
vt 0.1250 0.8750 0.0000
vt 0.1250 0.7500 0.0000
vt 0.1250 0.6250 0.0000
vt 0.1250 0.5000 0.0000
vt 0.0000 0.8750 0.0000
vt 0.0000 0.7500 0.0000
vt 0.0000 0.6250 0.0000
vt 0.0000 0.5000 0.0000
vt 0.8750 0.3750 0.0000
vt 1.0000 0.3750 0.0000
vt 0.8750 0.2500 0.0000
vt 1.0000 0.2500 0.0000
vt 0.8750 0.1250 0.0000
vt 1.0000 0.1250 0.0000
vt 0.8750 0.0000 0.0000
vt 0.7500 0.3750 0.0000
vt 0.7500 0.2500 0.0000
vt 0.7500 0.1250 0.0000
vt 0.6250 0.3750 0.0000
vt 0.6250 0.2500 0.0000
vt 0.6250 0.1250 0.0000
vt 0.6250 0.0000 0.0000
vt 0.5000 0.3750 0.0000
vt 0.5000 0.2500 0.0000
vt 0.5000 0.1250 0.0000
vt 0.3750 0.3750 0.0000
vt 0.3750 0.2500 0.0000
vt 0.3750 0.1250 0.0000
vt 0.3750 0.0000 0.0000
vt 0.2500 0.3750 0.0000
vt 0.2500 0.2500 0.0000
vt 0.2500 0.1250 0.0000
vt 0.1250 0.3750 0.0000
vt 0.1250 0.2500 0.0000
vt 0.1250 0.1250 0.0000
vt 0.1250 0.0000 0.0000
vt 0.0000 0.3750 0.0000
vt 0.0000 0.2500 0.0000
vt 0.0000 0.1250 0.0000
vt 0.6250 0.2250 0.0000
vt 0.5000 0.2250 0.0000
vt 0.6250 0.4500 0.0000
vt 0.5000 0.4500 0.0000
vt 0.6250 0.6750 0.0000
vt 0.5000 0.6750 0.0000
vt 0.6250 0.9000 0.0000
vt 0.5000 0.9000 0.0000
vt 0.7500 0.2250 0.0000
vt 0.7500 0.4500 0.0000
vt 0.7500 0.6750 0.0000
vt 0.7500 0.9000 0.0000
vt 0.8750 0.2250 0.0000
vt 0.8750 0.4500 0.0000
vt 0.8750 0.6750 0.0000
vt 0.8750 0.9000 0.0000
vt 1.0000 0.2250 0.0000
vt 1.0000 0.4500 0.0000
vt 1.0000 0.6750 0.0000
vt 1.0000 0.9000 0.0000
vt 0.1250 0.2250 0.0000
vt 0.0000 0.2250 0.0000
vt 0.1250 0.4500 0.0000
vt 0.0000 0.4500 0.0000
vt 0.1250 0.6750 0.0000
vt 0.0000 0.6750 0.0000
vt 0.1250 0.9000 0.0000
vt 0.0000 0.9000 0.0000
vt 0.2500 0.2250 0.0000
vt 0.2500 0.4500 0.0000
vt 0.2500 0.6750 0.0000
vt 0.2500 0.9000 0.0000
vt 0.3750 0.2250 0.0000
vt 0.3750 0.4500 0.0000
vt 0.3750 0.6750 0.0000
vt 0.3750 0.9000 0.0000
vt 0.6250 0.9250 0.0000
vt 0.5000 0.9250 0.0000
vt 0.6250 0.9500 0.0000
vt 0.5000 0.9500 0.0000
vt 0.6250 0.9750 0.0000
vt 0.5000 0.9750 0.0000
vt 0.7500 0.9250 0.0000
vt 0.7500 0.9500 0.0000
vt 0.7500 0.9750 0.0000
vt 0.8750 0.9250 0.0000
vt 0.8750 0.9500 0.0000
vt 0.8750 0.9750 0.0000
vt 1.0000 0.9250 0.0000
vt 1.0000 0.9500 0.0000
vt 1.0000 0.9750 0.0000
vt 0.1250 0.9250 0.0000
vt 0.0000 0.9250 0.0000
vt 0.1250 0.9500 0.0000
vt 0.0000 0.9500 0.0000
vt 0.1250 0.9750 0.0000
vt 0.0000 0.9750 0.0000
vt 0.2500 0.9250 0.0000
vt 0.2500 0.9500 0.0000
vt 0.2500 0.9750 0.0000
vt 0.3750 0.9250 0.0000
vt 0.3750 0.9500 0.0000
vt 0.3750 0.9750 0.0000
# 287 texture coords

g Teapot001
s 1
f 1/1/1 2/2/2 3/3/3 
f 3/3/3 4/4/4 1/1/1 
f 4/4/4 3/3/3 5/5/5 
f 5/5/5 6/6/6 4/4/4 
f 6/6/6 5/5/5 7/7/7 
f 7/7/7 8/8/8 6/6/6 
f 8/8/8 7/7/7 9/9/9 
f 9/9/9 10/10/10 8/8/8 
f 2/2/2 11/11/11 12/12/12 
f 12/12/12 3/3/3 2/2/2 
f 3/3/3 12/12/12 13/13/13 
f 13/13/13 5/5/5 3/3/3 
f 5/5/5 13/13/13 14/14/14 
f 14/14/14 7/7/7 5/5/5 
f 7/7/7 14/14/14 15/15/15 
f 15/15/15 9/9/9 7/7/7 
f 11/11/11 16/16/16 17/17/17 
f 17/17/17 12/12/12 11/11/11 
f 12/12/12 17/17/17 18/18/18 
f 18/18/18 13/13/13 12/12/12 
f 13/13/13 18/18/18 19/19/19 
f 19/19/19 14/14/14 13/13/13 
f 14/14/14 19/19/19 20/20/20 
f 20/20/20 15/15/15 14/14/14 
f 16/16/16 21/21/21 22/22/22 
f 22/22/22 17/17/17 16/16/16 
f 17/17/17 22/22/22 23/23/23 
f 23/23/23 18/18/18 17/17/17 
f 18/18/18 23/23/23 24/24/24 
f 24/24/24 19/19/19 18/18/18 
f 19/19/19 24/24/24 25/25/25 
f 25/25/25 20/20/20 19/19/19 
f 21/21/21 26/26/26 27/27/27 
f 27/27/27 22/22/22 21/21/21 
f 22/22/22 27/27/27 28/28/28 
f 28/28/28 23/23/23 22/22/22 
f 23/23/23 28/28/28 29/29/29 
f 29/29/29 24/24/24 23/23/23 
f 24/24/24 29/29/29 30/30/30 
f 30/30/30 25/25/25 24/24/24 
f 26/26/26 31/31/31 32/32/32 
f 32/32/32 27/27/27 26/26/26 
f 27/27/27 32/32/32 33/33/33 
f 33/33/33 28/28/28 27/27/27 
f 28/28/28 33/33/33 34/34/34 
f 34/34/34 29/29/29 28/28/28 
f 29/29/29 34/34/34 35/35/35 
f 35/35/35 30/30/30 29/29/29 
f 31/31/31 36/36/36 37/37/37 
f 37/37/37 32/32/32 31/31/31 
f 32/32/32 37/37/37 38/38/38 
f 38/38/38 33/33/33 32/32/32 
f 33/33/33 38/38/38 39/39/39 
f 39/39/39 34/34/34 33/33/33 
f 34/34/34 39/39/39 40/40/40 
f 40/40/40 35/35/35 34/34/34 
f 36/36/36 41/41/41 42/42/42 
f 42/42/42 37/37/37 36/36/36 
f 37/37/37 42/42/42 43/43/43 
f 43/43/43 38/38/38 37/37/37 
f 38/38/38 43/43/43 44/44/44 
f 44/44/44 39/39/39 38/38/38 
f 39/39/39 44/44/44 45/45/45 
f 45/45/45 40/40/40 39/39/39 
f 41/1/41 46/2/46 47/3/47 
f 47/3/47 42/4/42 41/1/41 
f 42/4/42 47/3/47 48/5/48 
f 48/5/48 43/6/43 42/4/42 
f 43/6/43 48/5/48 49/7/49 
f 49/7/49 44/8/44 43/6/43 
f 44/8/44 49/7/49 50/9/50 
f 50/9/50 45/10/45 44/8/44 
f 46/2/46 51/11/51 52/12/52 
f 52/12/52 47/3/47 46/2/46 
f 47/3/47 52/12/52 53/13/53 
f 53/13/53 48/5/48 47/3/47 
f 48/5/48 53/13/53 54/14/54 
f 54/14/54 49/7/49 48/5/48 
f 49/7/49 54/14/54 55/15/55 
f 55/15/55 50/9/50 49/7/49 
f 51/11/51 56/16/56 57/17/57 
f 57/17/57 52/12/52 51/11/51 
f 52/12/52 57/17/57 58/18/58 
f 58/18/58 53/13/53 52/12/52 
f 53/13/53 58/18/58 59/19/59 
f 59/19/59 54/14/54 53/13/53 
f 54/14/54 59/19/59 60/20/60 
f 60/20/60 55/15/55 54/14/54 
f 56/16/56 61/21/61 62/22/62 
f 62/22/62 57/17/57 56/16/56 
f 57/17/57 62/22/62 63/23/63 
f 63/23/63 58/18/58 57/17/57 
f 58/18/58 63/23/63 64/24/64 
f 64/24/64 59/19/59 58/18/58 
f 59/19/59 64/24/64 65/25/65 
f 65/25/65 60/20/60 59/19/59 
f 61/21/61 66/26/66 67/27/67 
f 67/27/67 62/22/62 61/21/61 
f 62/22/62 67/27/67 68/28/68 
f 68/28/68 63/23/63 62/22/62 
f 63/23/63 68/28/68 69/29/69 
f 69/29/69 64/24/64 63/23/63 
f 64/24/64 69/29/69 70/30/70 
f 70/30/70 65/25/65 64/24/64 
f 66/26/66 71/31/71 72/32/72 
f 72/32/72 67/27/67 66/26/66 
f 67/27/67 72/32/72 73/33/73 
f 73/33/73 68/28/68 67/27/67 
f 68/28/68 73/33/73 74/34/74 
f 74/34/74 69/29/69 68/28/68 
f 69/29/69 74/34/74 75/35/75 
f 75/35/75 70/30/70 69/29/69 
f 71/31/71 76/36/76 77/37/77 
f 77/37/77 72/32/72 71/31/71 
f 72/32/72 77/37/77 78/38/78 
f 78/38/78 73/33/73 72/32/72 
f 73/33/73 78/38/78 79/39/79 
f 79/39/79 74/34/74 73/33/73 
f 74/34/74 79/39/79 80/40/80 
f 80/40/80 75/35/75 74/34/74 
f 76/36/76 1/41/1 4/42/4 
f 4/42/4 77/37/77 76/36/76 
f 77/37/77 4/42/4 6/43/6 
f 6/43/6 78/38/78 77/37/77 
f 78/38/78 6/43/6 8/44/8 
f 8/44/8 79/39/79 78/38/78 
f 79/39/79 8/44/8 10/45/10 
f 10/45/10 80/40/80 79/39/79 
f 10/10/10 9/9/9 81/46/81 
f 81/46/81 82/47/82 10/10/10 
f 82/47/82 81/46/81 83/48/83 
f 83/48/83 84/49/84 82/47/82 
f 84/49/84 83/48/83 85/50/85 
f 85/50/85 86/51/86 84/49/84 
f 86/51/86 85/50/85 87/52/87 
f 87/52/87 88/53/88 86/51/86 
f 9/9/9 15/15/15 89/54/89 
f 89/54/89 81/46/81 9/9/9 
f 81/46/81 89/54/89 90/55/90 
f 90/55/90 83/48/83 81/46/81 
f 83/48/83 90/55/90 91/56/91 
f 91/56/91 85/50/85 83/48/83 
f 85/50/85 91/56/91 92/57/92 
f 92/57/92 87/52/87 85/50/85 
f 15/15/15 20/20/20 93/58/93 
f 93/58/93 89/54/89 15/15/15 
f 89/54/89 93/58/93 94/59/94 
f 94/59/94 90/55/90 89/54/89 
f 90/55/90 94/59/94 95/60/95 
f 95/60/95 91/56/91 90/55/90 
f 91/56/91 95/60/95 96/61/96 
f 96/61/96 92/57/92 91/56/91 
f 20/20/20 25/25/25 97/62/97 
f 97/62/97 93/58/93 20/20/20 
f 93/58/93 97/62/97 98/63/98 
f 98/63/98 94/59/94 93/58/93 
f 94/59/94 98/63/98 99/64/99 
f 99/64/99 95/60/95 94/59/94 
f 95/60/95 99/64/99 100/65/100 
f 100/65/100 96/61/96 95/60/95 
f 25/25/25 30/30/30 101/66/101 
f 101/66/101 97/62/97 25/25/25 
f 97/62/97 101/66/101 102/67/102 
f 102/67/102 98/63/98 97/62/97 
f 98/63/98 102/67/102 103/68/103 
f 103/68/103 99/64/99 98/63/98 
f 99/64/99 103/68/103 104/69/104 
f 104/69/104 100/65/100 99/64/99 
f 30/30/30 35/35/35 105/70/105 
f 105/70/105 101/66/101 30/30/30 
f 101/66/101 105/70/105 106/71/106 
f 106/71/106 102/67/102 101/66/101 
f 102/67/102 106/71/106 107/72/107 
f 107/72/107 103/68/103 102/67/102 
f 103/68/103 107/72/107 108/73/108 
f 108/73/108 104/69/104 103/68/103 
f 35/35/35 40/40/40 109/74/109 
f 109/74/109 105/70/105 35/35/35 
f 105/70/105 109/74/109 110/75/110 
f 110/75/110 106/71/106 105/70/105 
f 106/71/106 110/75/110 111/76/111 
f 111/76/111 107/72/107 106/71/106 
f 107/72/107 111/76/111 112/77/112 
f 112/77/112 108/73/108 107/72/107 
f 40/40/40 45/45/45 113/78/113 
f 113/78/113 109/74/109 40/40/40 
f 109/74/109 113/78/113 114/79/114 
f 114/79/114 110/75/110 109/74/109 
f 110/75/110 114/79/114 115/80/115 
f 115/80/115 111/76/111 110/75/110 
f 111/76/111 115/80/115 116/81/116 
f 116/81/116 112/77/112 111/76/111 
f 45/10/45 50/9/50 117/46/117 
f 117/46/117 113/47/113 45/10/45 
f 113/47/113 117/46/117 118/48/118 
f 118/48/118 114/49/114 113/47/113 
f 114/49/114 118/48/118 119/50/119 
f 119/50/119 115/51/115 114/49/114 
f 115/51/115 119/50/119 120/52/120 
f 120/52/120 116/53/116 115/51/115 
f 50/9/50 55/15/55 121/54/121 
f 121/54/121 117/46/117 50/9/50 
f 117/46/117 121/54/121 122/55/122 
f 122/55/122 118/48/118 117/46/117 
f 118/48/118 122/55/122 123/56/123 
f 123/56/123 119/50/119 118/48/118 
f 119/50/119 123/56/123 124/57/124 
f 124/57/124 120/52/120 119/50/119 
f 55/15/55 60/20/60 125/58/125 
f 125/58/125 121/54/121 55/15/55 
f 121/54/121 125/58/125 126/59/126 
f 126/59/126 122/55/122 121/54/121 
f 122/55/122 126/59/126 127/60/127 
f 127/60/127 123/56/123 122/55/122 
f 123/56/123 127/60/127 128/61/128 
f 128/61/128 124/57/124 123/56/123 
f 60/20/60 65/25/65 129/62/129 
f 129/62/129 125/58/125 60/20/60 
f 125/58/125 129/62/129 130/63/130 
f 130/63/130 126/59/126 125/58/125 
f 126/59/126 130/63/130 131/64/131 
f 131/64/131 127/60/127 126/59/126 
f 127/60/127 131/64/131 132/65/132 
f 132/65/132 128/61/128 127/60/127 
f 65/25/65 70/30/70 133/66/133 
f 133/66/133 129/62/129 65/25/65 
f 129/62/129 133/66/133 134/67/134 
f 134/67/134 130/63/130 129/62/129 
f 130/63/130 134/67/134 135/68/135 
f 135/68/135 131/64/131 130/63/130 
f 131/64/131 135/68/135 136/69/136 
f 136/69/136 132/65/132 131/64/131 
f 70/30/70 75/35/75 137/70/137 
f 137/70/137 133/66/133 70/30/70 
f 133/66/133 137/70/137 138/71/138 
f 138/71/138 134/67/134 133/66/133 
f 134/67/134 138/71/138 139/72/139 
f 139/72/139 135/68/135 134/67/134 
f 135/68/135 139/72/139 140/73/140 
f 140/73/140 136/69/136 135/68/135 
f 75/35/75 80/40/80 141/74/141 
f 141/74/141 137/70/137 75/35/75 
f 137/70/137 141/74/141 142/75/142 
f 142/75/142 138/71/138 137/70/137 
f 138/71/138 142/75/142 143/76/143 
f 143/76/143 139/72/139 138/71/138 
f 139/72/139 143/76/143 144/77/144 
f 144/77/144 140/73/140 139/72/139 
f 80/40/80 10/45/10 82/78/82 
f 82/78/82 141/74/141 80/40/80 
f 141/74/141 82/78/82 84/79/84 
f 84/79/84 142/75/142 141/74/141 
f 142/75/142 84/79/84 86/80/86 
f 86/80/86 143/76/143 142/75/142 
f 143/76/143 86/80/86 88/81/88 
f 88/81/88 144/77/144 143/76/143 
f 88/53/88 87/52/87 145/82/145 
f 145/82/145 146/83/146 88/53/88 
f 146/83/146 145/82/145 147/84/147 
f 147/84/147 148/85/148 146/83/146 
f 148/85/148 147/84/147 149/86/149 
f 149/86/149 150/87/150 148/85/148 
f 150/87/150 149/86/149 151/88/151 
f 151/88/151 152/89/152 150/87/150 
f 87/52/87 92/57/92 153/90/153 
f 153/90/153 145/82/145 87/52/87 
f 145/82/145 153/90/153 154/91/154 
f 154/91/154 147/84/147 145/82/145 
f 147/84/147 154/91/154 155/92/155 
f 155/92/155 149/86/149 147/84/147 
f 149/86/149 155/92/155 156/93/156 
f 156/93/156 151/88/151 149/86/149 
f 92/57/92 96/61/96 157/94/157 
f 157/94/157 153/90/153 92/57/92 
f 153/90/153 157/94/157 158/95/158 
f 158/95/158 154/91/154 153/90/153 
f 154/91/154 158/95/158 159/96/159 
f 159/96/159 155/92/155 154/91/154 
f 155/92/155 159/96/159 160/97/160 
f 160/97/160 156/93/156 155/92/155 
f 96/61/96 100/65/100 161/98/161 
f 161/98/161 157/94/157 96/61/96 
f 157/94/157 161/98/161 162/99/162 
f 162/99/162 158/95/158 157/94/157 
f 158/95/158 162/99/162 163/100/163 
f 163/100/163 159/96/159 158/95/158 
f 159/96/159 163/100/163 164/101/164 
f 164/101/164 160/97/160 159/96/159 
f 100/65/100 104/69/104 165/102/165 
f 165/102/165 161/98/161 100/65/100 
f 161/98/161 165/102/165 166/103/166 
f 166/103/166 162/99/162 161/98/161 
f 162/99/162 166/103/166 167/104/167 
f 167/104/167 163/100/163 162/99/162 
f 163/100/163 167/104/167 168/105/168 
f 168/105/168 164/101/164 163/100/163 
f 104/69/104 108/73/108 169/106/169 
f 169/106/169 165/102/165 104/69/104 
f 165/102/165 169/106/169 170/107/170 
f 170/107/170 166/103/166 165/102/165 
f 166/103/166 170/107/170 171/108/171 
f 171/108/171 167/104/167 166/103/166 
f 167/104/167 171/108/171 172/109/172 
f 172/109/172 168/105/168 167/104/167 
f 108/73/108 112/77/112 173/110/173 
f 173/110/173 169/106/169 108/73/108 
f 169/106/169 173/110/173 174/111/174 
f 174/111/174 170/107/170 169/106/169 
f 170/107/170 174/111/174 175/112/175 
f 175/112/175 171/108/171 170/107/170 
f 171/108/171 175/112/175 176/113/176 
f 176/113/176 172/109/172 171/108/171 
f 112/77/112 116/81/116 177/114/177 
f 177/114/177 173/110/173 112/77/112 
f 173/110/173 177/114/177 178/115/178 
f 178/115/178 174/111/174 173/110/173 
f 174/111/174 178/115/178 179/116/179 
f 179/116/179 175/112/175 174/111/174 
f 175/112/175 179/116/179 180/117/180 
f 180/117/180 176/113/176 175/112/175 
f 116/53/116 120/52/120 181/82/181 
f 181/82/181 177/83/177 116/53/116 
f 177/83/177 181/82/181 182/84/182 
f 182/84/182 178/85/178 177/83/177 
f 178/85/178 182/84/182 183/86/183 
f 183/86/183 179/87/179 178/85/178 
f 179/87/179 183/86/183 184/88/184 
f 184/88/184 180/89/180 179/87/179 
f 120/52/120 124/57/124 185/90/185 
f 185/90/185 181/82/181 120/52/120 
f 181/82/181 185/90/185 186/91/186 
f 186/91/186 182/84/182 181/82/181 
f 182/84/182 186/91/186 187/92/187 
f 187/92/187 183/86/183 182/84/182 
f 183/86/183 187/92/187 188/93/188 
f 188/93/188 184/88/184 183/86/183 
f 124/57/124 128/61/128 189/94/189 
f 189/94/189 185/90/185 124/57/124 
f 185/90/185 189/94/189 190/95/190 
f 190/95/190 186/91/186 185/90/185 
f 186/91/186 190/95/190 191/96/191 
f 191/96/191 187/92/187 186/91/186 
f 187/92/187 191/96/191 192/97/192 
f 192/97/192 188/93/188 187/92/187 
f 128/61/128 132/65/132 193/98/193 
f 193/98/193 189/94/189 128/61/128 
f 189/94/189 193/98/193 194/99/194 
f 194/99/194 190/95/190 189/94/189 
f 190/95/190 194/99/194 195/100/195 
f 195/100/195 191/96/191 190/95/190 
f 191/96/191 195/100/195 196/101/196 
f 196/101/196 192/97/192 191/96/191 
f 132/65/132 136/69/136 197/102/197 
f 197/102/197 193/98/193 132/65/132 
f 193/98/193 197/102/197 198/103/198 
f 198/103/198 194/99/194 193/98/193 
f 194/99/194 198/103/198 199/104/199 
f 199/104/199 195/100/195 194/99/194 
f 195/100/195 199/104/199 200/105/200 
f 200/105/200 196/101/196 195/100/195 
f 136/69/136 140/73/140 201/106/201 
f 201/106/201 197/102/197 136/69/136 
f 197/102/197 201/106/201 202/107/202 
f 202/107/202 198/103/198 197/102/197 
f 198/103/198 202/107/202 203/108/203 
f 203/108/203 199/104/199 198/103/198 
f 199/104/199 203/108/203 204/109/204 
f 204/109/204 200/105/200 199/104/199 
f 140/73/140 144/77/144 205/110/205 
f 205/110/205 201/106/201 140/73/140 
f 201/106/201 205/110/205 206/111/206 
f 206/111/206 202/107/202 201/106/201 
f 202/107/202 206/111/206 207/112/207 
f 207/112/207 203/108/203 202/107/202 
f 203/108/203 207/112/207 208/113/208 
f 208/113/208 204/109/204 203/108/203 
f 144/77/144 88/81/88 146/114/146 
f 146/114/146 205/110/205 144/77/144 
f 205/110/205 146/114/146 148/115/148 
f 148/115/148 206/111/206 205/110/205 
f 206/111/206 148/115/148 150/116/150 
f 150/116/150 207/112/207 206/111/206 
f 207/112/207 150/116/150 152/117/152 
f 152/117/152 208/113/208 207/112/207 
f 152/89/152 151/88/151 209/118/209 
f 209/118/209 210/119/210 152/89/152 
f 210/119/210 209/118/209 211/120/211 
f 211/120/211 212/121/212 210/119/210 
f 212/121/212 211/120/211 213/122/213 
f 213/122/213 214/123/214 212/121/212 
f 214/123/214 213/122/213 215/124/215 
f 215/124/215 215/125/215 214/123/214 
f 151/88/151 156/93/156 216/126/216 
f 216/126/216 209/118/209 151/88/151 
f 209/118/209 216/126/216 217/127/217 
f 217/127/217 211/120/211 209/118/209 
f 211/120/211 217/127/217 218/128/218 
f 218/128/218 213/122/213 211/120/211 
f 213/122/213 218/128/218 215/129/215 
f 215/129/215 215/124/215 213/122/213 
f 156/93/156 160/97/160 219/130/219 
f 219/130/219 216/126/216 156/93/156 
f 216/126/216 219/130/219 220/131/220 
f 220/131/220 217/127/217 216/126/216 
f 217/127/217 220/131/220 221/132/221 
f 221/132/221 218/128/218 217/127/217 
f 218/128/218 221/132/221 215/133/215 
f 215/133/215 215/129/215 218/128/218 
f 160/97/160 164/101/164 222/134/222 
f 222/134/222 219/130/219 160/97/160 
f 219/130/219 222/134/222 223/135/223 
f 223/135/223 220/131/220 219/130/219 
f 220/131/220 223/135/223 224/136/224 
f 224/136/224 221/132/221 220/131/220 
f 221/132/221 224/136/224 215/137/215 
f 215/137/215 215/133/215 221/132/221 
f 164/101/164 168/105/168 225/138/225 
f 225/138/225 222/134/222 164/101/164 
f 222/134/222 225/138/225 226/139/226 
f 226/139/226 223/135/223 222/134/222 
f 223/135/223 226/139/226 227/140/227 
f 227/140/227 224/136/224 223/135/223 
f 224/136/224 227/140/227 215/141/215 
f 215/141/215 215/137/215 224/136/224 
f 168/105/168 172/109/172 228/142/228 
f 228/142/228 225/138/225 168/105/168 
f 225/138/225 228/142/228 229/143/229 
f 229/143/229 226/139/226 225/138/225 
f 226/139/226 229/143/229 230/144/230 
f 230/144/230 227/140/227 226/139/226 
f 227/140/227 230/144/230 215/145/215 
f 215/145/215 215/141/215 227/140/227 
f 172/109/172 176/113/176 231/146/231 
f 231/146/231 228/142/228 172/109/172 
f 228/142/228 231/146/231 232/147/232 
f 232/147/232 229/143/229 228/142/228 
f 229/143/229 232/147/232 233/148/233 
f 233/148/233 230/144/230 229/143/229 
f 230/144/230 233/148/233 215/149/215 
f 215/149/215 215/145/215 230/144/230 
f 176/113/176 180/117/180 234/150/234 
f 234/150/234 231/146/231 176/113/176 
f 231/146/231 234/150/234 235/151/235 
f 235/151/235 232/147/232 231/146/231 
f 232/147/232 235/151/235 236/152/236 
f 236/152/236 233/148/233 232/147/232 
f 233/148/233 236/152/236 215/153/215 
f 215/153/215 215/149/215 233/148/233 
f 180/89/180 184/88/184 237/118/237 
f 237/118/237 234/119/234 180/89/180 
f 234/119/234 237/118/237 238/120/238 
f 238/120/238 235/121/235 234/119/234 
f 235/121/235 238/120/238 239/122/239 
f 239/122/239 236/123/236 235/121/235 
f 236/123/236 239/122/239 215/124/215 
f 215/124/215 215/125/215 236/123/236 
f 184/88/184 188/93/188 240/126/240 
f 240/126/240 237/118/237 184/88/184 
f 237/118/237 240/126/240 241/127/241 
f 241/127/241 238/120/238 237/118/237 
f 238/120/238 241/127/241 242/128/242 
f 242/128/242 239/122/239 238/120/238 
f 239/122/239 242/128/242 215/129/215 
f 215/129/215 215/124/215 239/122/239 
f 188/93/188 192/97/192 243/130/243 
f 243/130/243 240/126/240 188/93/188 
f 240/126/240 243/130/243 244/131/244 
f 244/131/244 241/127/241 240/126/240 
f 241/127/241 244/131/244 245/132/245 
f 245/132/245 242/128/242 241/127/241 
f 242/128/242 245/132/245 215/133/215 
f 215/133/215 215/129/215 242/128/242 
f 192/97/192 196/101/196 246/134/246 
f 246/134/246 243/130/243 192/97/192 
f 243/130/243 246/134/246 247/135/247 
f 247/135/247 244/131/244 243/130/243 
f 244/131/244 247/135/247 248/136/248 
f 248/136/248 245/132/245 244/131/244 
f 245/132/245 248/136/248 215/137/215 
f 215/137/215 215/133/215 245/132/245 
f 196/101/196 200/105/200 249/138/249 
f 249/138/249 246/134/246 196/101/196 
f 246/134/246 249/138/249 250/139/250 
f 250/139/250 247/135/247 246/134/246 
f 247/135/247 250/139/250 251/140/251 
f 251/140/251 248/136/248 247/135/247 
f 248/136/248 251/140/251 215/141/215 
f 215/141/215 215/137/215 248/136/248 
f 200/105/200 204/109/204 252/142/252 
f 252/142/252 249/138/249 200/105/200 
f 249/138/249 252/142/252 253/143/253 
f 253/143/253 250/139/250 249/138/249 
f 250/139/250 253/143/253 254/144/254 
f 254/144/254 251/140/251 250/139/250 
f 251/140/251 254/144/254 215/145/215 
f 215/145/215 215/141/215 251/140/251 
f 204/109/204 208/113/208 255/146/255 
f 255/146/255 252/142/252 204/109/204 
f 252/142/252 255/146/255 256/147/256 
f 256/147/256 253/143/253 252/142/252 
f 253/143/253 256/147/256 257/148/257 
f 257/148/257 254/144/254 253/143/253 
f 254/144/254 257/148/257 215/149/215 
f 215/149/215 215/145/215 254/144/254 
f 208/113/208 152/117/152 210/150/210 
f 210/150/210 255/146/255 208/113/208 
f 255/146/255 210/150/210 212/151/212 
f 212/151/212 256/147/256 255/146/255 
f 256/147/256 212/151/212 214/152/214 
f 214/152/214 257/148/257 256/147/256 
f 257/148/257 214/152/214 215/153/215 
f 215/153/215 215/149/215 257/148/257 
f 258/65/258 259/154/259 260/155/260 
f 260/155/260 261/156/261 258/65/258 
f 261/156/261 260/155/260 262/157/262 
f 262/157/262 263/158/263 261/156/261 
f 263/158/263 262/157/262 264/159/264 
f 264/159/264 265/160/265 263/158/263 
f 265/160/265 264/159/264 266/161/266 
f 266/161/266 267/162/267 265/160/265 
f 259/154/259 268/69/268 269/163/269 
f 269/163/269 260/155/260 259/154/259 
f 260/155/260 269/163/269 270/164/270 
f 270/164/270 262/157/262 260/155/260 
f 262/157/262 270/164/270 271/165/271 
f 271/165/271 264/159/264 262/157/262 
f 264/159/264 271/165/271 272/166/272 
f 272/166/272 266/161/266 264/159/264 
f 268/69/268 273/167/273 274/168/274 
f 274/168/274 269/163/269 268/69/268 
f 269/163/269 274/168/274 275/169/275 
f 275/169/275 270/164/270 269/163/269 
f 270/164/270 275/169/275 276/170/276 
f 276/170/276 271/165/271 270/164/270 
f 271/165/271 276/170/276 277/171/277 
f 277/171/277 272/166/272 271/165/271 
f 273/167/273 278/73/278 279/172/279 
f 279/172/279 274/168/274 273/167/273 
f 274/168/274 279/172/279 280/173/280 
f 280/173/280 275/169/275 274/168/274 
f 275/169/275 280/173/280 281/174/281 
f 281/174/281 276/170/276 275/169/275 
f 276/170/276 281/174/281 282/175/282 
f 282/175/282 277/171/277 276/170/276 
f 278/73/278 283/176/283 284/177/284 
f 284/177/284 279/172/279 278/73/278 
f 279/172/279 284/177/284 285/178/285 
f 285/178/285 280/173/280 279/172/279 
f 280/173/280 285/178/285 286/179/286 
f 286/179/286 281/174/281 280/173/280 
f 281/174/281 286/179/286 287/180/287 
f 287/180/287 282/175/282 281/174/281 
f 283/176/283 288/77/288 289/181/289 
f 289/181/289 284/177/284 283/176/283 
f 284/177/284 289/181/289 290/182/290 
f 290/182/290 285/178/285 284/177/284 
f 285/178/285 290/182/290 291/183/291 
f 291/183/291 286/179/286 285/178/285 
f 286/179/286 291/183/291 292/184/292 
f 292/184/292 287/180/287 286/179/286 
f 288/77/288 293/185/293 294/186/294 
f 294/186/294 289/181/289 288/77/288 
f 289/181/289 294/186/294 295/187/295 
f 295/187/295 290/182/290 289/181/289 
f 290/182/290 295/187/295 296/188/296 
f 296/188/296 291/183/291 290/182/290 
f 291/183/291 296/188/296 297/189/297 
f 297/189/297 292/184/292 291/183/291 
f 293/185/293 258/81/258 261/190/261 
f 261/190/261 294/186/294 293/185/293 
f 294/186/294 261/190/261 263/191/263 
f 263/191/263 295/187/295 294/186/294 
f 295/187/295 263/191/263 265/192/265 
f 265/192/265 296/188/296 295/187/295 
f 296/188/296 265/192/265 267/193/267 
f 267/193/267 297/189/297 296/188/296 
f 267/162/267 266/161/266 298/194/298 
f 298/194/298 299/195/299 267/162/267 
f 299/195/299 298/194/298 300/196/300 
f 300/196/300 301/197/301 299/195/299 
f 301/197/301 300/196/300 302/198/302 
f 302/198/302 303/199/303 301/197/301 
f 303/199/303 302/198/302 304/200/304 
f 304/200/304 116/137/305 303/199/303 
f 266/161/266 272/166/272 305/201/306 
f 305/201/306 298/194/298 266/161/266 
f 298/194/298 305/201/306 306/202/307 
f 306/202/307 300/196/300 298/194/298 
f 300/196/300 306/202/307 307/203/308 
f 307/203/308 302/198/302 300/196/300 
f 302/198/302 307/203/308 308/141/309 
f 308/141/309 304/200/304 302/198/302 
f 272/166/272 277/171/277 309/204/310 
f 309/204/310 305/201/306 272/166/272 
f 305/201/306 309/204/310 310/205/311 
f 310/205/311 306/202/307 305/201/306 
f 306/202/307 310/205/311 311/206/312 
f 311/206/312 307/203/308 306/202/307 
f 307/203/308 311/206/312 312/207/313 
f 312/207/313 308/141/309 307/203/308 
f 277/171/277 282/175/282 313/208/314 
f 313/208/314 309/204/310 277/171/277 
f 309/204/310 313/208/314 314/209/315 
f 314/209/315 310/205/311 309/204/310 
f 310/205/311 314/209/315 315/210/316 
f 315/210/316 311/206/312 310/205/311 
f 311/206/312 315/210/316 316/145/317 
f 316/145/317 312/207/313 311/206/312 
f 282/175/282 287/180/287 317/211/318 
f 317/211/318 313/208/314 282/175/282 
f 313/208/314 317/211/318 318/212/319 
f 318/212/319 314/209/315 313/208/314 
f 314/209/315 318/212/319 319/213/320 
f 319/213/320 315/210/316 314/209/315 
f 315/210/316 319/213/320 320/214/321 
f 320/214/321 316/145/317 315/210/316 
f 287/180/287 292/184/292 321/215/322 
f 321/215/322 317/211/318 287/180/287 
f 317/211/318 321/215/322 322/216/323 
f 322/216/323 318/212/319 317/211/318 
f 318/212/319 322/216/323 323/217/324 
f 323/217/324 319/213/320 318/212/319 
f 319/213/320 323/217/324 324/149/325 
f 324/149/325 320/214/321 319/213/320 
f 292/184/292 297/189/297 325/218/326 
f 325/218/326 321/215/322 292/184/292 
f 321/215/322 325/218/326 326/219/327 
f 326/219/327 322/216/323 321/215/322 
f 322/216/323 326/219/327 327/220/328 
f 327/220/328 323/217/324 322/216/323 
f 323/217/324 327/220/328 328/221/329 
f 328/221/329 324/149/325 323/217/324 
f 297/189/297 267/193/267 299/222/299 
f 299/222/299 325/218/326 297/189/297 
f 325/218/326 299/222/299 301/223/301 
f 301/223/301 326/219/327 325/218/326 
f 326/219/327 301/223/301 303/224/303 
f 303/224/303 327/220/328 326/219/327 
f 327/220/328 303/224/303 116/153/305 
f 116/153/305 328/221/329 327/220/328 
f 329/145/330 330/207/331 331/225/332 
f 331/225/332 332/226/333 329/145/330 
f 332/226/333 331/225/332 333/227/334 
f 333/227/334 334/228/335 332/226/333 
f 334/228/335 333/227/334 335/229/336 
f 335/229/336 336/230/337 334/228/335 
f 336/230/337 335/229/336 337/231/338 
f 337/231/338 338/232/339 336/230/337 
f 330/207/331 339/141/340 340/233/341 
f 340/233/341 331/225/332 330/207/331 
f 331/225/332 340/233/341 341/234/342 
f 341/234/342 333/227/334 331/225/332 
f 333/227/334 341/234/342 342/235/343 
f 342/235/343 335/229/336 333/227/334 
f 335/229/336 342/235/343 343/236/344 
f 343/236/344 337/231/338 335/229/336 
f 339/141/340 344/200/345 345/237/346 
f 345/237/346 340/233/341 339/141/340 
f 340/233/341 345/237/346 346/238/347 
f 346/238/347 341/234/342 340/233/341 
f 341/234/342 346/238/347 347/239/348 
f 347/239/348 342/235/343 341/234/342 
f 342/235/343 347/239/348 348/240/349 
f 348/240/349 343/236/344 342/235/343 
f 344/200/345 349/137/350 350/241/351 
f 350/241/351 345/237/346 344/200/345 
f 345/237/346 350/241/351 351/242/352 
f 351/242/352 346/238/347 345/237/346 
f 346/238/347 351/242/352 352/243/353 
f 352/243/353 347/239/348 346/238/347 
f 347/239/348 352/243/353 353/244/354 
f 353/244/354 348/240/349 347/239/348 
f 349/153/350 354/221/355 355/245/356 
f 355/245/356 350/246/351 349/153/350 
f 350/246/351 355/245/356 356/247/357 
f 356/247/357 351/248/352 350/246/351 
f 351/248/352 356/247/357 357/249/358 
f 357/249/358 352/250/353 351/248/352 
f 352/250/353 357/249/358 358/251/359 
f 358/251/359 353/252/354 352/250/353 
f 354/221/355 359/149/360 360/253/361 
f 360/253/361 355/245/356 354/221/355 
f 355/245/356 360/253/361 361/254/362 
f 361/254/362 356/247/357 355/245/356 
f 356/247/357 361/254/362 362/255/363 
f 362/255/363 357/249/358 356/247/357 
f 357/249/358 362/255/363 363/256/364 
f 363/256/364 358/251/359 357/249/358 
f 359/149/360 364/214/365 365/257/366 
f 365/257/366 360/253/361 359/149/360 
f 360/253/361 365/257/366 366/258/367 
f 366/258/367 361/254/362 360/253/361 
f 361/254/362 366/258/367 367/259/368 
f 367/259/368 362/255/363 361/254/362 
f 362/255/363 367/259/368 368/260/369 
f 368/260/369 363/256/364 362/255/363 
f 364/214/365 329/145/330 332/226/333 
f 332/226/333 365/257/366 364/214/365 
f 365/257/366 332/226/333 334/228/335 
f 334/228/335 366/258/367 365/257/366 
f 366/258/367 334/228/335 336/230/337 
f 336/230/337 367/259/368 366/258/367 
f 367/259/368 336/230/337 338/232/339 
f 338/232/339 368/260/369 367/259/368 
f 338/232/339 337/231/338 369/261/370 
f 369/261/370 370/262/371 338/232/339 
f 370/262/371 369/261/370 371/263/372 
f 371/263/372 372/264/373 370/262/371 
f 372/264/373 371/263/372 373/265/374 
f 373/265/374 374/266/375 372/264/373 
f 374/266/375 373/265/374 375/167/376 
f 375/167/376 376/73/377 374/266/375 
f 337/231/338 343/236/344 377/267/378 
f 377/267/378 369/261/370 337/231/338 
f 369/261/370 377/267/378 378/268/379 
f 378/268/379 371/263/372 369/261/370 
f 371/263/372 378/268/379 379/269/380 
f 379/269/380 373/265/374 371/263/372 
f 373/265/374 379/269/380 380/69/381 
f 380/69/381 375/167/376 373/265/374 
f 343/236/344 348/240/349 381/270/382 
f 381/270/382 377/267/378 343/236/344 
f 377/267/378 381/270/382 382/271/383 
f 382/271/383 378/268/379 377/267/378 
f 378/268/379 382/271/383 383/272/384 
f 383/272/384 379/269/380 378/268/379 
f 379/269/380 383/272/384 384/154/385 
f 384/154/385 380/69/381 379/269/380 
f 348/240/349 353/244/354 385/273/386 
f 385/273/386 381/270/382 348/240/349 
f 381/270/382 385/273/386 386/274/387 
f 386/274/387 382/271/383 381/270/382 
f 382/271/383 386/274/387 387/275/388 
f 387/275/388 383/272/384 382/271/383 
f 383/272/384 387/275/388 388/65/389 
f 388/65/389 384/154/385 383/272/384 
f 353/252/354 358/251/359 389/276/390 
f 389/276/390 385/277/386 353/252/354 
f 385/277/386 389/276/390 390/278/391 
f 390/278/391 386/279/387 385/277/386 
f 386/279/387 390/278/391 391/280/392 
f 391/280/392 387/281/388 386/279/387 
f 387/281/388 391/280/392 392/185/393 
f 392/185/393 388/81/389 387/281/388 
f 358/251/359 363/256/364 393/282/394 
f 393/282/394 389/276/390 358/251/359 
f 389/276/390 393/282/394 394/283/395 
f 394/283/395 390/278/391 389/276/390 
f 390/278/391 394/283/395 395/284/396 
f 395/284/396 391/280/392 390/278/391 
f 391/280/392 395/284/396 396/77/397 
f 396/77/397 392/185/393 391/280/392 
f 363/256/364 368/260/369 397/285/398 
f 397/285/398 393/282/394 363/256/364 
f 393/282/394 397/285/398 398/286/399 
f 398/286/399 394/283/395 393/282/394 
f 394/283/395 398/286/399 399/287/400 
f 399/287/400 395/284/396 394/283/395 
f 395/284/396 399/287/400 400/176/401 
f 400/176/401 396/77/397 395/284/396 
f 368/260/369 338/232/339 370/262/371 
f 370/262/371 397/285/398 368/260/369 
f 397/285/398 370/262/371 372/264/373 
f 372/264/373 398/286/399 397/285/398 
f 398/286/399 372/264/373 374/266/375 
f 374/266/375 399/287/400 398/286/399 
f 399/287/400 374/266/375 376/73/377 
f 376/73/377 400/176/401 399/287/400 
f 401/65/402 401/154/402 402/157/403 
f 402/157/403 403/158/404 401/65/402 
f 403/158/404 402/157/403 404/161/405 
f 404/161/405 405/162/406 403/158/404 
f 405/162/406 404/161/405 406/196/407 
f 406/196/407 407/197/408 405/162/406 
f 407/197/408 406/196/407 408/200/409 
f 408/200/409 409/137/410 407/197/408 
f 401/154/402 401/69/402 410/164/411 
f 410/164/411 402/157/403 401/154/402 
f 402/157/403 410/164/411 411/166/412 
f 411/166/412 404/161/405 402/157/403 
f 404/161/405 411/166/412 412/202/413 
f 412/202/413 406/196/407 404/161/405 
f 406/196/407 412/202/413 413/141/414 
f 413/141/414 408/200/409 406/196/407 
f 401/69/402 401/167/402 414/169/415 
f 414/169/415 410/164/411 401/69/402 
f 410/164/411 414/169/415 415/171/416 
f 415/171/416 411/166/412 410/164/411 
f 411/166/412 415/171/416 416/205/417 
f 416/205/417 412/202/413 411/166/412 
f 412/202/413 416/205/417 417/207/418 
f 417/207/418 413/141/414 412/202/413 
f 401/167/402 401/73/402 418/173/419 
f 418/173/419 414/169/415 401/167/402 
f 414/169/415 418/173/419 419/175/420 
f 419/175/420 415/171/416 414/169/415 
f 415/171/416 419/175/420 420/209/421 
f 420/209/421 416/205/417 415/171/416 
f 416/205/417 420/209/421 421/145/422 
f 421/145/422 417/207/418 416/205/417 
f 401/73/402 401/176/402 422/178/423 
f 422/178/423 418/173/419 401/73/402 
f 418/173/419 422/178/423 423/180/424 
f 423/180/424 419/175/420 418/173/419 
f 419/175/420 423/180/424 424/212/425 
f 424/212/425 420/209/421 419/175/420 
f 420/209/421 424/212/425 425/214/426 
f 425/214/426 421/145/422 420/209/421 
f 401/176/402 401/77/402 426/182/427 
f 426/182/427 422/178/423 401/176/402 
f 422/178/423 426/182/427 427/184/428 
f 427/184/428 423/180/424 422/178/423 
f 423/180/424 427/184/428 428/216/429 
f 428/216/429 424/212/425 423/180/424 
f 424/212/425 428/216/429 429/149/430 
f 429/149/430 425/214/426 424/212/425 
f 401/77/402 401/185/402 430/187/431 
f 430/187/431 426/182/427 401/77/402 
f 426/182/427 430/187/431 431/189/432 
f 431/189/432 427/184/428 426/182/427 
f 427/184/428 431/189/432 432/219/433 
f 432/219/433 428/216/429 427/184/428 
f 428/216/429 432/219/433 433/221/434 
f 433/221/434 429/149/430 428/216/429 
f 401/185/402 401/81/402 434/191/435 
f 434/191/435 430/187/431 401/185/402 
f 430/187/431 434/191/435 435/193/436 
f 435/193/436 431/189/432 430/187/431 
f 431/189/432 435/193/436 436/223/437 
f 436/223/437 432/219/433 431/189/432 
f 432/219/433 436/223/437 437/153/438 
f 437/153/438 433/221/434 432/219/433 
f 401/65/402 401/154/402 438/157/439 
f 438/157/439 434/158/435 401/65/402 
f 434/158/435 438/157/439 439/161/440 
f 439/161/440 435/162/436 434/158/435 
f 435/162/436 439/161/440 440/196/441 
f 440/196/441 436/197/437 435/162/436 
f 436/197/437 440/196/441 441/200/442 
f 441/200/442 437/137/438 436/197/437 
f 401/154/402 401/69/402 442/164/443 
f 442/164/443 438/157/439 401/154/402 
f 438/157/439 442/164/443 443/166/444 
f 443/166/444 439/161/440 438/157/439 
f 439/161/440 443/166/444 444/202/445 
f 444/202/445 440/196/441 439/161/440 
f 440/196/441 444/202/445 445/141/446 
f 445/141/446 441/200/442 440/196/441 
f 401/69/402 401/167/402 446/169/447 
f 446/169/447 442/164/443 401/69/402 
f 442/164/443 446/169/447 447/171/448 
f 447/171/448 443/166/444 442/164/443 
f 443/166/444 447/171/448 448/205/449 
f 448/205/449 444/202/445 443/166/444 
f 444/202/445 448/205/449 449/207/450 
f 449/207/450 445/141/446 444/202/445 
f 401/167/402 401/73/402 450/173/451 
f 450/173/451 446/169/447 401/167/402 
f 446/169/447 450/173/451 451/175/452 
f 451/175/452 447/171/448 446/169/447 
f 447/171/448 451/175/452 452/209/453 
f 452/209/453 448/205/449 447/171/448 
f 448/205/449 452/209/453 453/145/454 
f 453/145/454 449/207/450 448/205/449 
f 401/73/402 401/176/402 454/178/455 
f 454/178/455 450/173/451 401/73/402 
f 450/173/451 454/178/455 455/180/456 
f 455/180/456 451/175/452 450/173/451 
f 451/175/452 455/180/456 456/212/457 
f 456/212/457 452/209/453 451/175/452 
f 452/209/453 456/212/457 457/214/458 
f 457/214/458 453/145/454 452/209/453 
f 401/176/402 401/77/402 458/182/459 
f 458/182/459 454/178/455 401/176/402 
f 454/178/455 458/182/459 459/184/460 
f 459/184/460 455/180/456 454/178/455 
f 455/180/456 459/184/460 460/216/461 
f 460/216/461 456/212/457 455/180/456 
f 456/212/457 460/216/461 461/149/462 
f 461/149/462 457/214/458 456/212/457 
f 401/77/402 401/185/402 462/187/463 
f 462/187/463 458/182/459 401/77/402 
f 458/182/459 462/187/463 463/189/464 
f 463/189/464 459/184/460 458/182/459 
f 459/184/460 463/189/464 464/219/465 
f 464/219/465 460/216/461 459/184/460 
f 460/216/461 464/219/465 465/221/466 
f 465/221/466 461/149/462 460/216/461 
f 401/185/402 401/81/402 403/191/404 
f 403/191/404 462/187/463 401/185/402 
f 462/187/463 403/191/404 405/193/406 
f 405/193/406 463/189/464 462/187/463 
f 463/189/464 405/193/406 407/223/408 
f 407/223/408 464/219/465 463/189/464 
f 464/219/465 407/223/408 409/153/410 
f 409/153/410 465/221/466 464/219/465 
f 409/65/410 408/154/409 466/157/467 
f 466/157/467 467/158/468 409/65/410 
f 467/158/468 466/157/467 468/161/469 
f 468/161/469 469/162/470 467/158/468 
f 469/162/470 468/161/469 470/196/471 
f 470/196/471 471/197/472 469/162/470 
f 471/197/472 470/196/471 472/200/473 
f 472/200/473 473/137/474 471/197/472 
f 408/154/409 413/69/414 474/164/475 
f 474/164/475 466/157/467 408/154/409 
f 466/157/467 474/164/475 475/166/476 
f 475/166/476 468/161/469 466/157/467 
f 468/161/469 475/166/476 476/202/477 
f 476/202/477 470/196/471 468/161/469 
f 470/196/471 476/202/477 477/141/478 
f 477/141/478 472/200/473 470/196/471 
f 413/69/414 417/167/418 478/169/479 
f 478/169/479 474/164/475 413/69/414 
f 474/164/475 478/169/479 479/171/480 
f 479/171/480 475/166/476 474/164/475 
f 475/166/476 479/171/480 480/205/481 
f 480/205/481 476/202/477 475/166/476 
f 476/202/477 480/205/481 481/207/482 
f 481/207/482 477/141/478 476/202/477 
f 417/167/418 421/73/422 482/173/483 
f 482/173/483 478/169/479 417/167/418 
f 478/169/479 482/173/483 483/175/484 
f 483/175/484 479/171/480 478/169/479 
f 479/171/480 483/175/484 484/209/485 
f 484/209/485 480/205/481 479/171/480 
f 480/205/481 484/209/485 485/145/486 
f 485/145/486 481/207/482 480/205/481 
f 421/73/422 425/176/426 486/178/487 
f 486/178/487 482/173/483 421/73/422 
f 482/173/483 486/178/487 487/180/488 
f 487/180/488 483/175/484 482/173/483 
f 483/175/484 487/180/488 488/212/489 
f 488/212/489 484/209/485 483/175/484 
f 484/209/485 488/212/489 489/214/490 
f 489/214/490 485/145/486 484/209/485 
f 425/176/426 429/77/430 490/182/491 
f 490/182/491 486/178/487 425/176/426 
f 486/178/487 490/182/491 491/184/492 
f 491/184/492 487/180/488 486/178/487 
f 487/180/488 491/184/492 492/216/493 
f 492/216/493 488/212/489 487/180/488 
f 488/212/489 492/216/493 493/149/494 
f 493/149/494 489/214/490 488/212/489 
f 429/77/430 433/185/434 494/187/495 
f 494/187/495 490/182/491 429/77/430 
f 490/182/491 494/187/495 495/189/496 
f 495/189/496 491/184/492 490/182/491 
f 491/184/492 495/189/496 496/219/497 
f 496/219/497 492/216/493 491/184/492 
f 492/216/493 496/219/497 497/221/498 
f 497/221/498 493/149/494 492/216/493 
f 433/185/434 437/81/438 498/191/499 
f 498/191/499 494/187/495 433/185/434 
f 494/187/495 498/191/499 499/193/500 
f 499/193/500 495/189/496 494/187/495 
f 495/189/496 499/193/500 500/223/501 
f 500/223/501 496/219/497 495/189/496 
f 496/219/497 500/223/501 501/153/502 
f 501/153/502 497/221/498 496/219/497 
f 437/65/438 441/154/442 502/157/503 
f 502/157/503 498/158/499 437/65/438 
f 498/158/499 502/157/503 503/161/504 
f 503/161/504 499/162/500 498/158/499 
f 499/162/500 503/161/504 504/196/505 
f 504/196/505 500/197/501 499/162/500 
f 500/197/501 504/196/505 505/200/506 
f 505/200/506 501/137/502 500/197/501 
f 441/154/442 445/69/446 506/164/507 
f 506/164/507 502/157/503 441/154/442 
f 502/157/503 506/164/507 507/166/508 
f 507/166/508 503/161/504 502/157/503 
f 503/161/504 507/166/508 508/202/509 
f 508/202/509 504/196/505 503/161/504 
f 504/196/505 508/202/509 509/141/510 
f 509/141/510 505/200/506 504/196/505 
f 445/69/446 449/167/450 510/169/511 
f 510/169/511 506/164/507 445/69/446 
f 506/164/507 510/169/511 511/171/512 
f 511/171/512 507/166/508 506/164/507 
f 507/166/508 511/171/512 512/205/513 
f 512/205/513 508/202/509 507/166/508 
f 508/202/509 512/205/513 513/207/514 
f 513/207/514 509/141/510 508/202/509 
f 449/167/450 453/73/454 514/173/515 
f 514/173/515 510/169/511 449/167/450 
f 510/169/511 514/173/515 515/175/516 
f 515/175/516 511/171/512 510/169/511 
f 511/171/512 515/175/516 516/209/517 
f 516/209/517 512/205/513 511/171/512 
f 512/205/513 516/209/517 517/145/518 
f 517/145/518 513/207/514 512/205/513 
f 453/73/454 457/176/458 518/178/519 
f 518/178/519 514/173/515 453/73/454 
f 514/173/515 518/178/519 519/180/520 
f 519/180/520 515/175/516 514/173/515 
f 515/175/516 519/180/520 520/212/521 
f 520/212/521 516/209/517 515/175/516 
f 516/209/517 520/212/521 521/214/522 
f 521/214/522 517/145/518 516/209/517 
f 457/176/458 461/77/462 522/182/523 
f 522/182/523 518/178/519 457/176/458 
f 518/178/519 522/182/523 523/184/524 
f 523/184/524 519/180/520 518/178/519 
f 519/180/520 523/184/524 524/216/525 
f 524/216/525 520/212/521 519/180/520 
f 520/212/521 524/216/525 525/149/526 
f 525/149/526 521/214/522 520/212/521 
f 461/77/462 465/185/466 526/187/527 
f 526/187/527 522/182/523 461/77/462 
f 522/182/523 526/187/527 527/189/528 
f 527/189/528 523/184/524 522/182/523 
f 523/184/524 527/189/528 528/219/529 
f 528/219/529 524/216/525 523/184/524 
f 524/216/525 528/219/529 529/221/530 
f 529/221/530 525/149/526 524/216/525 
f 465/185/466 409/81/410 467/191/468 
f 467/191/468 526/187/527 465/185/466 
f 526/187/527 467/191/468 469/193/470 
f 469/193/470 527/189/528 526/187/527 
f 527/189/528 469/193/470 471/223/472 
f 471/223/472 528/219/529 527/189/528 
f 528/219/529 471/223/472 473/153/474 
f 473/153/474 529/221/530 528/219/529 
# 1024 faces

